%YAML 1.1
%TAG !u! tag:unity3d.com,2011:
--- !u!29 &1
OcclusionCullingSettings:
  m_ObjectHideFlags: 0
  serializedVersion: 2
  m_OcclusionBakeSettings:
    smallestOccluder: 5
    smallestHole: 0.25
    backfaceThreshold: 100
  m_SceneGUID: 00000000000000000000000000000000
  m_OcclusionCullingData: {fileID: 0}
--- !u!104 &2
RenderSettings:
  m_ObjectHideFlags: 0
  serializedVersion: 8
  m_Fog: 0
  m_FogColor: {r: 0.5, g: 0.5, b: 0.5, a: 1}
  m_FogMode: 3
  m_FogDensity: 0.01
  m_LinearFogStart: 0
  m_LinearFogEnd: 300
  m_AmbientSkyColor: {r: 0.212, g: 0.227, b: 0.259, a: 1}
  m_AmbientEquatorColor: {r: 0.114, g: 0.125, b: 0.133, a: 1}
  m_AmbientGroundColor: {r: 0.047, g: 0.043, b: 0.035, a: 1}
  m_AmbientIntensity: 1
  m_AmbientMode: 0
  m_SubtractiveShadowColor: {r: 0.42, g: 0.478, b: 0.627, a: 1}
  m_SkyboxMaterial: {fileID: 10304, guid: 0000000000000000f000000000000000, type: 0}
  m_HaloStrength: 0.5
  m_FlareStrength: 1
  m_FlareFadeSpeed: 3
  m_HaloTexture: {fileID: 0}
  m_SpotCookie: {fileID: 10001, guid: 0000000000000000e000000000000000, type: 0}
  m_DefaultReflectionMode: 0
  m_DefaultReflectionResolution: 128
  m_ReflectionBounces: 1
  m_ReflectionIntensity: 1
  m_CustomReflection: {fileID: 0}
  m_Sun: {fileID: 0}
  m_IndirectSpecularColor: {r: 0.45114648, g: 0.49976367, b: 0.5676636, a: 1}
--- !u!157 &3
LightmapSettings:
  m_ObjectHideFlags: 0
  serializedVersion: 11
  m_GIWorkflowMode: 0
  m_GISettings:
    serializedVersion: 2
    m_BounceScale: 1
    m_IndirectOutputScale: 1
    m_AlbedoBoost: 1
    m_TemporalCoherenceThreshold: 1
    m_EnvironmentLightingMode: 0
    m_EnableBakedLightmaps: 1
    m_EnableRealtimeLightmaps: 1
  m_LightmapEditorSettings:
    serializedVersion: 9
    m_Resolution: 2
    m_BakeResolution: 40
    m_TextureWidth: 1024
    m_TextureHeight: 1024
    m_AO: 0
    m_AOMaxDistance: 1
    m_CompAOExponent: 0
    m_CompAOExponentDirect: 0
    m_Padding: 2
    m_LightmapParameters: {fileID: 0}
    m_LightmapsBakeMode: 1
    m_TextureCompression: 1
    m_FinalGather: 0
    m_FinalGatherFiltering: 1
    m_FinalGatherRayCount: 1024
    m_ReflectionCompression: 2
    m_MixedBakeMode: 1
    m_BakeBackend: 0
    m_PVRSampling: 1
    m_PVRDirectSampleCount: 32
    m_PVRSampleCount: 500
    m_PVRBounces: 2
    m_PVRFiltering: 0
    m_PVRFilteringMode: 1
    m_PVRCulling: 1
    m_PVRFilteringGaussRadiusDirect: 1
    m_PVRFilteringGaussRadiusIndirect: 5
    m_PVRFilteringGaussRadiusAO: 2
    m_PVRFilteringAtrousColorSigma: 1
    m_PVRFilteringAtrousNormalSigma: 1
    m_PVRFilteringAtrousPositionSigma: 1
  m_LightingDataAsset: {fileID: 0}
  m_UseShadowmask: 0
--- !u!196 &4
NavMeshSettings:
  serializedVersion: 2
  m_ObjectHideFlags: 0
  m_BuildSettings:
    serializedVersion: 2
    agentTypeID: 0
    agentRadius: 0.5
    agentHeight: 2
    agentSlope: 45
    agentClimb: 0.4
    ledgeDropHeight: 0
    maxJumpAcrossDistance: 0
    minRegionArea: 2
    manualCellSize: 0
    cellSize: 0.16666667
    manualTileSize: 0
    tileSize: 256
    accuratePlacement: 0
  m_NavMeshData: {fileID: 0}
--- !u!1 &87239903
GameObject:
  m_ObjectHideFlags: 0
  m_PrefabParentObject: {fileID: 1003776994715440, guid: 3da21ec90da15e344a3bfc2f32c4e03c,
    type: 2}
  m_PrefabInternal: {fileID: 0}
  serializedVersion: 5
  m_Component:
  - component: {fileID: 87239904}
  - component: {fileID: 87239906}
  - component: {fileID: 87239905}
  m_Layer: 4
  m_Name: SquareGate2 SceneviewRender
  m_TagString: Untagged
  m_Icon: {fileID: 0}
  m_NavMeshLayer: 0
  m_StaticEditorFlags: 0
  m_IsActive: 1
--- !u!4 &87239904
Transform:
  m_ObjectHideFlags: 0
  m_PrefabParentObject: {fileID: 4023602862734596, guid: 3da21ec90da15e344a3bfc2f32c4e03c,
    type: 2}
  m_PrefabInternal: {fileID: 0}
  m_GameObject: {fileID: 87239903}
  m_LocalRotation: {x: -0, y: -0, z: -0, w: 1}
  m_LocalPosition: {x: 0, y: 0, z: 0.0001}
  m_LocalScale: {x: 0.99999964, y: 1, z: 0.99999964}
  m_Children: []
  m_Father: {fileID: 1147408835}
  m_RootOrder: 3
  m_LocalEulerAnglesHint: {x: 0, y: 0, z: 0}
--- !u!23 &87239905
MeshRenderer:
  m_ObjectHideFlags: 0
  m_PrefabParentObject: {fileID: 23458007587841514, guid: 3da21ec90da15e344a3bfc2f32c4e03c,
    type: 2}
  m_PrefabInternal: {fileID: 0}
  m_GameObject: {fileID: 87239903}
  m_Enabled: 1
  m_CastShadows: 1
  m_ReceiveShadows: 1
  m_MotionVectors: 1
  m_LightProbeUsage: 1
  m_ReflectionProbeUsage: 1
  m_Materials:
  - {fileID: 1158628402}
  m_StaticBatchInfo:
    firstSubMesh: 0
    subMeshCount: 0
  m_StaticBatchRoot: {fileID: 0}
  m_ProbeAnchor: {fileID: 0}
  m_LightProbeVolumeOverride: {fileID: 0}
  m_ScaleInLightmap: 1
  m_PreserveUVs: 0
  m_IgnoreNormalsForChartDetection: 0
  m_ImportantGI: 0
  m_SelectedEditorRenderState: 3
  m_MinimumChartSize: 4
  m_AutoUVMaxDistance: 0.5
  m_AutoUVMaxAngle: 89
  m_LightmapParameters: {fileID: 0}
  m_SortingLayerID: 0
  m_SortingLayer: 0
  m_SortingOrder: 0
--- !u!33 &87239906
MeshFilter:
  m_ObjectHideFlags: 0
  m_PrefabParentObject: {fileID: 33966681619700438, guid: 3da21ec90da15e344a3bfc2f32c4e03c,
    type: 2}
  m_PrefabInternal: {fileID: 0}
  m_GameObject: {fileID: 87239903}
  m_Mesh: {fileID: 10210, guid: 0000000000000000e000000000000000, type: 0}
--- !u!21 &100616869
Material:
  serializedVersion: 6
  m_ObjectHideFlags: 0
  m_PrefabParentObject: {fileID: 0}
  m_PrefabInternal: {fileID: 0}
  m_Name: Standard
  m_Shader: {fileID: 46, guid: 0000000000000000f000000000000000, type: 0}
  m_ShaderKeywords: 
  m_LightmapFlags: 5
  m_EnableInstancingVariants: 0
  m_DoubleSidedGI: 0
  m_CustomRenderQueue: -1
  stringTagMap: {}
  disabledShaderPasses: []
  m_SavedProperties:
    serializedVersion: 3
    m_TexEnvs:
    - _BumpMap:
        m_Texture: {fileID: 0}
        m_Scale: {x: 1, y: 1}
        m_Offset: {x: 0, y: 0}
    - _DetailAlbedoMap:
        m_Texture: {fileID: 0}
        m_Scale: {x: 1, y: 1}
        m_Offset: {x: 0, y: 0}
    - _DetailMask:
        m_Texture: {fileID: 0}
        m_Scale: {x: 1, y: 1}
        m_Offset: {x: 0, y: 0}
    - _DetailNormalMap:
        m_Texture: {fileID: 0}
        m_Scale: {x: 1, y: 1}
        m_Offset: {x: 0, y: 0}
    - _EmissionMap:
        m_Texture: {fileID: 0}
        m_Scale: {x: 1, y: 1}
        m_Offset: {x: 0, y: 0}
    - _MainTex:
        m_Texture: {fileID: 0}
        m_Scale: {x: 1, y: 1}
        m_Offset: {x: 0, y: 0}
    - _MetallicGlossMap:
        m_Texture: {fileID: 0}
        m_Scale: {x: 1, y: 1}
        m_Offset: {x: 0, y: 0}
    - _OcclusionMap:
        m_Texture: {fileID: 0}
        m_Scale: {x: 1, y: 1}
        m_Offset: {x: 0, y: 0}
    - _ParallaxMap:
        m_Texture: {fileID: 0}
        m_Scale: {x: 1, y: 1}
        m_Offset: {x: 0, y: 0}
    m_Floats:
    - _BumpScale: 1
    - _Cutoff: 0.5
    - _DetailNormalMapScale: 1
    - _DstBlend: 0
    - _GlossMapScale: 1
    - _Glossiness: 0.5
    - _GlossyReflections: 1
    - _Metallic: 0
    - _Mode: 0
    - _OcclusionStrength: 1
    - _Parallax: 0.02
    - _SmoothnessTextureChannel: 0
    - _SpecularHighlights: 1
    - _SrcBlend: 1
    - _UVSec: 0
    - _ZWrite: 1
    m_Colors:
    - _Color: {r: 1, g: 1, b: 1, a: 1}
    - _EmissionColor: {r: 0, g: 0, b: 0, a: 1}
--- !u!1 &176078892
GameObject:
  m_ObjectHideFlags: 0
  m_PrefabParentObject: {fileID: 1435987072866044, guid: 3da21ec90da15e344a3bfc2f32c4e03c,
    type: 2}
  m_PrefabInternal: {fileID: 0}
  serializedVersion: 5
  m_Component:
  - component: {fileID: 176078893}
  - component: {fileID: 176078896}
  - component: {fileID: 176078895}
  - component: {fileID: 176078894}
  m_Layer: 0
  m_Name: CubeUp
  m_TagString: Untagged
  m_Icon: {fileID: 0}
  m_NavMeshLayer: 0
  m_StaticEditorFlags: 0
  m_IsActive: 1
--- !u!4 &176078893
Transform:
  m_ObjectHideFlags: 0
  m_PrefabParentObject: {fileID: 4585393827091046, guid: 3da21ec90da15e344a3bfc2f32c4e03c,
    type: 2}
  m_PrefabInternal: {fileID: 0}
  m_GameObject: {fileID: 176078892}
  m_LocalRotation: {x: 0.000000029802322, y: -0.000000059604645, z: 0.7071068, w: 0.70710677}
  m_LocalPosition: {x: 0, y: 0.5, z: 0}
  m_LocalScale: {x: 0.1, y: 1, z: 0.02}
  m_Children: []
  m_Father: {fileID: 1098679074}
  m_RootOrder: 3
  m_LocalEulerAnglesHint: {x: 0, y: 0, z: 0}
--- !u!65 &176078894
BoxCollider:
  m_ObjectHideFlags: 0
  m_PrefabParentObject: {fileID: 65618495295937010, guid: 3da21ec90da15e344a3bfc2f32c4e03c,
    type: 2}
  m_PrefabInternal: {fileID: 0}
  m_GameObject: {fileID: 176078892}
  m_Material: {fileID: 0}
  m_IsTrigger: 0
  m_Enabled: 1
  serializedVersion: 2
  m_Size: {x: 0.99999994, y: 0.99999994, z: 0.99999994}
  m_Center: {x: 0, y: 0, z: 0}
--- !u!23 &176078895
MeshRenderer:
  m_ObjectHideFlags: 0
  m_PrefabParentObject: {fileID: 23954473028264048, guid: 3da21ec90da15e344a3bfc2f32c4e03c,
    type: 2}
  m_PrefabInternal: {fileID: 0}
  m_GameObject: {fileID: 176078892}
  m_Enabled: 1
  m_CastShadows: 1
  m_ReceiveShadows: 1
  m_MotionVectors: 1
  m_LightProbeUsage: 1
  m_ReflectionProbeUsage: 1
  m_Materials:
  - {fileID: 2100000, guid: a947e6a9100bd744b93f4477db6d6d3c, type: 2}
  m_StaticBatchInfo:
    firstSubMesh: 0
    subMeshCount: 0
  m_StaticBatchRoot: {fileID: 0}
  m_ProbeAnchor: {fileID: 0}
  m_LightProbeVolumeOverride: {fileID: 0}
  m_ScaleInLightmap: 1
  m_PreserveUVs: 1
  m_IgnoreNormalsForChartDetection: 0
  m_ImportantGI: 0
  m_SelectedEditorRenderState: 3
  m_MinimumChartSize: 4
  m_AutoUVMaxDistance: 0.5
  m_AutoUVMaxAngle: 89
  m_LightmapParameters: {fileID: 0}
  m_SortingLayerID: 0
  m_SortingLayer: 0
  m_SortingOrder: 0
--- !u!33 &176078896
MeshFilter:
  m_ObjectHideFlags: 0
  m_PrefabParentObject: {fileID: 33622751508930478, guid: 3da21ec90da15e344a3bfc2f32c4e03c,
    type: 2}
  m_PrefabInternal: {fileID: 0}
  m_GameObject: {fileID: 176078892}
  m_Mesh: {fileID: 10202, guid: 0000000000000000e000000000000000, type: 0}
--- !u!1 &223958166
GameObject:
  m_ObjectHideFlags: 0
  m_PrefabParentObject: {fileID: 1115608220339274, guid: 3da21ec90da15e344a3bfc2f32c4e03c,
    type: 2}
  m_PrefabInternal: {fileID: 0}
  serializedVersion: 5
  m_Component:
  - component: {fileID: 223958167}
  - component: {fileID: 223958170}
  - component: {fileID: 223958169}
  - component: {fileID: 223958168}
  m_Layer: 0
  m_Name: CubeLeft
  m_TagString: Untagged
  m_Icon: {fileID: 0}
  m_NavMeshLayer: 0
  m_StaticEditorFlags: 0
  m_IsActive: 1
--- !u!4 &223958167
Transform:
  m_ObjectHideFlags: 0
  m_PrefabParentObject: {fileID: 4397611010095518, guid: 3da21ec90da15e344a3bfc2f32c4e03c,
    type: 2}
  m_PrefabInternal: {fileID: 0}
  m_GameObject: {fileID: 223958166}
  m_LocalRotation: {x: 0, y: 0, z: 0, w: 1}
  m_LocalPosition: {x: 0.55, y: -0.025, z: 0}
  m_LocalScale: {x: 0.1, y: 1.15, z: 0.019999996}
  m_Children: []
  m_Father: {fileID: 1098679074}
  m_RootOrder: 1
  m_LocalEulerAnglesHint: {x: 0, y: 0, z: 0}
--- !u!65 &223958168
BoxCollider:
  m_ObjectHideFlags: 0
  m_PrefabParentObject: {fileID: 65904816331909438, guid: 3da21ec90da15e344a3bfc2f32c4e03c,
    type: 2}
  m_PrefabInternal: {fileID: 0}
  m_GameObject: {fileID: 223958166}
  m_Material: {fileID: 0}
  m_IsTrigger: 0
  m_Enabled: 1
  serializedVersion: 2
  m_Size: {x: 1, y: 1, z: 1}
  m_Center: {x: 0, y: 0, z: 0}
--- !u!23 &223958169
MeshRenderer:
  m_ObjectHideFlags: 0
  m_PrefabParentObject: {fileID: 23936163177016692, guid: 3da21ec90da15e344a3bfc2f32c4e03c,
    type: 2}
  m_PrefabInternal: {fileID: 0}
  m_GameObject: {fileID: 223958166}
  m_Enabled: 1
  m_CastShadows: 1
  m_ReceiveShadows: 1
  m_MotionVectors: 1
  m_LightProbeUsage: 1
  m_ReflectionProbeUsage: 1
  m_Materials:
  - {fileID: 2100000, guid: a947e6a9100bd744b93f4477db6d6d3c, type: 2}
  m_StaticBatchInfo:
    firstSubMesh: 0
    subMeshCount: 0
  m_StaticBatchRoot: {fileID: 0}
  m_ProbeAnchor: {fileID: 0}
  m_LightProbeVolumeOverride: {fileID: 0}
  m_ScaleInLightmap: 1
  m_PreserveUVs: 1
  m_IgnoreNormalsForChartDetection: 0
  m_ImportantGI: 0
  m_SelectedEditorRenderState: 3
  m_MinimumChartSize: 4
  m_AutoUVMaxDistance: 0.5
  m_AutoUVMaxAngle: 89
  m_LightmapParameters: {fileID: 0}
  m_SortingLayerID: 0
  m_SortingLayer: 0
  m_SortingOrder: 0
--- !u!33 &223958170
MeshFilter:
  m_ObjectHideFlags: 0
  m_PrefabParentObject: {fileID: 33804539535325544, guid: 3da21ec90da15e344a3bfc2f32c4e03c,
    type: 2}
  m_PrefabInternal: {fileID: 0}
  m_GameObject: {fileID: 223958166}
  m_Mesh: {fileID: 10202, guid: 0000000000000000e000000000000000, type: 0}
--- !u!21 &248981729
Material:
  serializedVersion: 6
  m_ObjectHideFlags: 0
  m_PrefabParentObject: {fileID: 0}
  m_PrefabInternal: {fileID: 0}
  m_Name: Gater/UV Remap
  m_Shader: {fileID: 4800000, guid: b680c2f39420847458548a216d96ce3a, type: 3}
  m_ShaderKeywords: 
  m_LightmapFlags: 4
  m_EnableInstancingVariants: 0
  m_DoubleSidedGI: 0
  m_CustomRenderQueue: -1
  stringTagMap: {}
  disabledShaderPasses: []
  m_SavedProperties:
    serializedVersion: 3
    m_TexEnvs:
    - _DistorsionPattern:
        m_Texture: {fileID: 0}
        m_Scale: {x: 1, y: 1}
        m_Offset: {x: 0, y: 0}
    - _MainTex:
        m_Texture: {fileID: 1545356587}
        m_Scale: {x: 1, y: 1}
        m_Offset: {x: 0, y: 0}
    m_Floats:
    - _DistorsionPatternSpeedX: -0.01
    - _DistorsionPatternSpeedY: 0
    - _DistorsionPatternTiling: 1
    - _EnableDistorsionPattern: 0
    m_Colors:
    - _DistorsionPatternColor: {r: 1, g: 1, b: 1, a: 1}
--- !u!1 &381108328
GameObject:
  m_ObjectHideFlags: 0
  m_PrefabParentObject: {fileID: 1505258839600246, guid: 3da21ec90da15e344a3bfc2f32c4e03c,
    type: 2}
  m_PrefabInternal: {fileID: 0}
  serializedVersion: 5
  m_Component:
  - component: {fileID: 381108329}
  - component: {fileID: 381108332}
  - component: {fileID: 381108331}
  - component: {fileID: 381108330}
  m_Layer: 0
  m_Name: CubeDown
  m_TagString: Untagged
  m_Icon: {fileID: 0}
  m_NavMeshLayer: 0
  m_StaticEditorFlags: 0
  m_IsActive: 1
--- !u!4 &381108329
Transform:
  m_ObjectHideFlags: 0
  m_PrefabParentObject: {fileID: 4158362873170288, guid: 3da21ec90da15e344a3bfc2f32c4e03c,
    type: 2}
  m_PrefabInternal: {fileID: 0}
  m_GameObject: {fileID: 381108328}
  m_LocalRotation: {x: 0, y: -0.000000029802326, z: 0.7071068, w: 0.70710677}
  m_LocalPosition: {x: -0, y: -0.55, z: 0}
  m_LocalScale: {x: 0.1, y: 1, z: 0.02}
  m_Children: []
  m_Father: {fileID: 1098679074}
  m_RootOrder: 2
  m_LocalEulerAnglesHint: {x: 0, y: 0, z: 0}
--- !u!65 &381108330
BoxCollider:
  m_ObjectHideFlags: 0
  m_PrefabParentObject: {fileID: 65222912132549982, guid: 3da21ec90da15e344a3bfc2f32c4e03c,
    type: 2}
  m_PrefabInternal: {fileID: 0}
  m_GameObject: {fileID: 381108328}
  m_Material: {fileID: 0}
  m_IsTrigger: 0
  m_Enabled: 1
  serializedVersion: 2
  m_Size: {x: 1, y: 1, z: 1}
  m_Center: {x: 0, y: 0, z: 0}
--- !u!23 &381108331
MeshRenderer:
  m_ObjectHideFlags: 0
  m_PrefabParentObject: {fileID: 23958004522794746, guid: 3da21ec90da15e344a3bfc2f32c4e03c,
    type: 2}
  m_PrefabInternal: {fileID: 0}
  m_GameObject: {fileID: 381108328}
  m_Enabled: 1
  m_CastShadows: 1
  m_ReceiveShadows: 1
  m_MotionVectors: 1
  m_LightProbeUsage: 1
  m_ReflectionProbeUsage: 1
  m_Materials:
  - {fileID: 2100000, guid: a947e6a9100bd744b93f4477db6d6d3c, type: 2}
  m_StaticBatchInfo:
    firstSubMesh: 0
    subMeshCount: 0
  m_StaticBatchRoot: {fileID: 0}
  m_ProbeAnchor: {fileID: 0}
  m_LightProbeVolumeOverride: {fileID: 0}
  m_ScaleInLightmap: 1
  m_PreserveUVs: 1
  m_IgnoreNormalsForChartDetection: 0
  m_ImportantGI: 0
  m_SelectedEditorRenderState: 3
  m_MinimumChartSize: 4
  m_AutoUVMaxDistance: 0.5
  m_AutoUVMaxAngle: 89
  m_LightmapParameters: {fileID: 0}
  m_SortingLayerID: 0
  m_SortingLayer: 0
  m_SortingOrder: 0
--- !u!33 &381108332
MeshFilter:
  m_ObjectHideFlags: 0
  m_PrefabParentObject: {fileID: 33802729550238446, guid: 3da21ec90da15e344a3bfc2f32c4e03c,
    type: 2}
  m_PrefabInternal: {fileID: 0}
  m_GameObject: {fileID: 381108328}
  m_Mesh: {fileID: 10202, guid: 0000000000000000e000000000000000, type: 0}
--- !u!1 &569976563
GameObject:
  m_ObjectHideFlags: 0
  m_PrefabParentObject: {fileID: 0}
  m_PrefabInternal: {fileID: 0}
  serializedVersion: 5
  m_Component:
  - component: {fileID: 569976567}
  - component: {fileID: 569976566}
  - component: {fileID: 569976564}
  - component: {fileID: 569976568}
  - component: {fileID: 569976565}
  m_Layer: 0
  m_Name: Cube1
  m_TagString: Untagged
  m_Icon: {fileID: 0}
  m_NavMeshLayer: 0
  m_StaticEditorFlags: 0
  m_IsActive: 1
--- !u!23 &569976564
MeshRenderer:
  m_ObjectHideFlags: 0
  m_PrefabParentObject: {fileID: 0}
  m_PrefabInternal: {fileID: 0}
  m_GameObject: {fileID: 569976563}
  m_Enabled: 1
  m_CastShadows: 1
  m_ReceiveShadows: 1
  m_MotionVectors: 1
  m_LightProbeUsage: 1
  m_ReflectionProbeUsage: 1
  m_Materials:
  - {fileID: 2100000, guid: 6b9d32e4d89fe2c45942fb5c17392f7c, type: 2}
  m_StaticBatchInfo:
    firstSubMesh: 0
    subMeshCount: 0
  m_StaticBatchRoot: {fileID: 0}
  m_ProbeAnchor: {fileID: 0}
  m_LightProbeVolumeOverride: {fileID: 0}
  m_ScaleInLightmap: 1
  m_PreserveUVs: 1
  m_IgnoreNormalsForChartDetection: 0
  m_ImportantGI: 0
  m_SelectedEditorRenderState: 3
  m_MinimumChartSize: 4
  m_AutoUVMaxDistance: 0.5
  m_AutoUVMaxAngle: 89
  m_LightmapParameters: {fileID: 0}
  m_SortingLayerID: 0
  m_SortingLayer: 0
  m_SortingOrder: 0
--- !u!54 &569976565
Rigidbody:
  m_ObjectHideFlags: 0
  m_PrefabParentObject: {fileID: 0}
  m_PrefabInternal: {fileID: 0}
  m_GameObject: {fileID: 569976563}
  serializedVersion: 2
  m_Mass: 1
  m_Drag: 0
  m_AngularDrag: 0
  m_UseGravity: 0
  m_IsKinematic: 0
  m_Interpolate: 0
  m_Constraints: 126
  m_CollisionDetection: 2
--- !u!33 &569976566
MeshFilter:
  m_ObjectHideFlags: 0
  m_PrefabParentObject: {fileID: 0}
  m_PrefabInternal: {fileID: 0}
  m_GameObject: {fileID: 569976563}
  m_Mesh: {fileID: 10202, guid: 0000000000000000e000000000000000, type: 0}
--- !u!4 &569976567
Transform:
  m_ObjectHideFlags: 0
  m_PrefabParentObject: {fileID: 0}
  m_PrefabInternal: {fileID: 0}
  m_GameObject: {fileID: 569976563}
  m_LocalRotation: {x: 0, y: 0, z: 0, w: 1}
  m_LocalPosition: {x: -30, y: -1.85, z: 0}
  m_LocalScale: {x: 1, y: 1, z: 1}
  m_Children: []
  m_Father: {fileID: 0}
  m_RootOrder: 3
  m_LocalEulerAnglesHint: {x: 0, y: 0, z: 0}
--- !u!65 &569976568
BoxCollider:
  m_ObjectHideFlags: 0
  m_PrefabParentObject: {fileID: 0}
  m_PrefabInternal: {fileID: 0}
  m_GameObject: {fileID: 569976563}
  m_Material: {fileID: 0}
  m_IsTrigger: 0
  m_Enabled: 1
  serializedVersion: 2
  m_Size: {x: 1, y: 1, z: 1}
  m_Center: {x: 0, y: 0, z: 0}
--- !u!21 &576775104
Material:
  serializedVersion: 6
  m_ObjectHideFlags: 0
  m_PrefabParentObject: {fileID: 0}
  m_PrefabInternal: {fileID: 0}
  m_Name: Gater/UV Remap
  m_Shader: {fileID: 4800000, guid: b680c2f39420847458548a216d96ce3a, type: 3}
  m_ShaderKeywords: 
  m_LightmapFlags: 4
  m_EnableInstancingVariants: 0
  m_DoubleSidedGI: 0
  m_CustomRenderQueue: -1
  stringTagMap: {}
  disabledShaderPasses: []
  m_SavedProperties:
    serializedVersion: 3
    m_TexEnvs:
    - _DistorsionPattern:
        m_Texture: {fileID: 0}
        m_Scale: {x: 1, y: 1}
        m_Offset: {x: 0, y: 0}
    - _MainTex:
        m_Texture: {fileID: 1089625445}
        m_Scale: {x: 1, y: 1}
        m_Offset: {x: 0, y: 0}
    m_Floats:
    - _DistorsionPatternSpeedX: -0.01
    - _DistorsionPatternSpeedY: 0
    - _DistorsionPatternTiling: 1
    - _EnableDistorsionPattern: 0
    m_Colors:
    - _DistorsionPatternColor: {r: 1, g: 1, b: 1, a: 1}
--- !u!1 &664537210
GameObject:
  m_ObjectHideFlags: 0
  m_PrefabParentObject: {fileID: 1186260641324146, guid: 3da21ec90da15e344a3bfc2f32c4e03c,
    type: 2}
  m_PrefabInternal: {fileID: 0}
  serializedVersion: 5
  m_Component:
  - component: {fileID: 664537211}
  m_Layer: 0
  m_Name: SquareGate2 ClipPlanePosObj
  m_TagString: Untagged
  m_Icon: {fileID: 0}
  m_NavMeshLayer: 0
  m_StaticEditorFlags: 0
  m_IsActive: 1
--- !u!4 &664537211
Transform:
  m_ObjectHideFlags: 0
  m_PrefabParentObject: {fileID: 4038887017842944, guid: 3da21ec90da15e344a3bfc2f32c4e03c,
    type: 2}
  m_PrefabInternal: {fileID: 0}
  m_GameObject: {fileID: 664537210}
  m_LocalRotation: {x: -0, y: -0, z: -0, w: 1}
  m_LocalPosition: {x: 0, y: 0, z: 0.005}
  m_LocalScale: {x: 0.19999999, y: 0.2, z: 0.19999999}
  m_Children: []
  m_Father: {fileID: 1147408835}
  m_RootOrder: 1
  m_LocalEulerAnglesHint: {x: 0, y: 0, z: 0}
--- !u!1 &710814632
GameObject:
  m_ObjectHideFlags: 0
  m_PrefabParentObject: {fileID: 0}
  m_PrefabInternal: {fileID: 0}
  serializedVersion: 5
  m_Component:
  - component: {fileID: 710814635}
  - component: {fileID: 710814634}
  - component: {fileID: 710814633}
  m_Layer: 0
  m_Name: SquareGate1 Camera 1
  m_TagString: Untagged
  m_Icon: {fileID: 0}
  m_NavMeshLayer: 0
  m_StaticEditorFlags: 0
  m_IsActive: 1
--- !u!45 &710814633
Skybox:
  m_ObjectHideFlags: 0
  m_PrefabParentObject: {fileID: 0}
  m_PrefabInternal: {fileID: 0}
  m_GameObject: {fileID: 710814632}
  m_Enabled: 1
  m_CustomSkybox: {fileID: 100616869}
--- !u!20 &710814634
Camera:
  m_ObjectHideFlags: 0
  m_PrefabParentObject: {fileID: 0}
  m_PrefabInternal: {fileID: 0}
  m_GameObject: {fileID: 710814632}
  m_Enabled: 0
  serializedVersion: 2
  m_ClearFlags: 1
  m_BackGroundColor: {r: 0.19215687, g: 0.3019608, b: 0.4745098, a: 0}
  m_NormalizedViewPortRect:
    serializedVersion: 2
    x: 0
    y: 0
    width: 1
    height: 1
  near clip plane: 0.01
  far clip plane: 1000
  field of view: 60
  orthographic: 0
  orthographic size: 5
  m_Depth: -1
  m_CullingMask:
    serializedVersion: 2
    m_Bits: 0
  m_RenderingPath: -1
  m_TargetTexture: {fileID: 0}
  m_TargetDisplay: 0
  m_TargetEye: 3
  m_HDR: 0
  m_AllowMSAA: 0
  m_ForceIntoRT: 0
  m_OcclusionCulling: 0
  m_StereoConvergence: 10
  m_StereoSeparation: 0.022
  m_StereoMirrorMode: 0
--- !u!4 &710814635
Transform:
  m_ObjectHideFlags: 0
  m_PrefabParentObject: {fileID: 0}
  m_PrefabInternal: {fileID: 0}
  m_GameObject: {fileID: 710814632}
  m_LocalRotation: {x: 0, y: 0.70710665, z: 0, w: -0.7071069}
  m_LocalPosition: {x: -0.00000038146973, y: -0.042, z: 4.6}
  m_LocalScale: {x: 0.19999997, y: 0.2, z: 0.19999997}
  m_Children: []
  m_Father: {fileID: 1843670892}
  m_RootOrder: 4
  m_LocalEulerAnglesHint: {x: 0, y: 0, z: 0}
--- !u!84 &722247843
RenderTexture:
  m_ObjectHideFlags: 0
  m_PrefabParentObject: {fileID: 0}
  m_PrefabInternal: {fileID: 0}
  m_Name: SquareGate1 RenderTexture 1
  m_ImageContentsHash:
    serializedVersion: 2
    Hash: 00000000000000000000000000000000
  m_Width: 1280
  m_Height: 1024
  m_AntiAliasing: 1
  m_DepthFormat: 2
  m_ColorFormat: 0
  m_MipMap: 0
  m_GenerateMips: 1
  m_SRGB: 0
  m_TextureSettings:
    serializedVersion: 2
    m_FilterMode: 1
    m_Aniso: 0
    m_MipBias: 0
    m_WrapU: 1
    m_WrapV: 1
    m_WrapW: 1
  m_Dimension: 2
  m_VolumeDepth: 1
--- !u!84 &759830820
RenderTexture:
  m_ObjectHideFlags: 0
  m_PrefabParentObject: {fileID: 0}
  m_PrefabInternal: {fileID: 0}
  m_Name: SquareGate2 RenderTexture 1
  m_ImageContentsHash:
    serializedVersion: 2
    Hash: 00000000000000000000000000000000
  m_Width: 1280
  m_Height: 1024
  m_AntiAliasing: 1
  m_DepthFormat: 2
  m_ColorFormat: 0
  m_MipMap: 0
  m_GenerateMips: 1
  m_SRGB: 0
  m_TextureSettings:
    serializedVersion: 2
    m_FilterMode: 1
    m_Aniso: 0
    m_MipBias: 0
    m_WrapU: 1
    m_WrapV: 1
    m_WrapW: 1
  m_Dimension: 2
  m_VolumeDepth: 1
--- !u!1 &774982343
GameObject:
  m_ObjectHideFlags: 0
  m_PrefabParentObject: {fileID: 1658295798796896, guid: 869fa305735e16145ad5d3113e402307,
    type: 2}
  m_PrefabInternal: {fileID: 0}
  serializedVersion: 5
  m_Component:
  - component: {fileID: 774982344}
  - component: {fileID: 774982347}
  - component: {fileID: 774982346}
  - component: {fileID: 774982345}
  m_Layer: 0
  m_Name: CubeDown
  m_TagString: Untagged
  m_Icon: {fileID: 0}
  m_NavMeshLayer: 0
  m_StaticEditorFlags: 0
  m_IsActive: 1
--- !u!4 &774982344
Transform:
  m_ObjectHideFlags: 0
  m_PrefabParentObject: {fileID: 4189081427189834, guid: 869fa305735e16145ad5d3113e402307,
    type: 2}
  m_PrefabInternal: {fileID: 0}
  m_GameObject: {fileID: 774982343}
  m_LocalRotation: {x: 0, y: -0.000000029802326, z: 0.7071068, w: 0.70710677}
  m_LocalPosition: {x: -0, y: -0.55, z: 0}
  m_LocalScale: {x: 0.1, y: 1, z: 0.02}
  m_Children: []
  m_Father: {fileID: 2056451222}
  m_RootOrder: 2
  m_LocalEulerAnglesHint: {x: 0, y: 0, z: 0}
--- !u!65 &774982345
BoxCollider:
  m_ObjectHideFlags: 0
  m_PrefabParentObject: {fileID: 65058412553458540, guid: 869fa305735e16145ad5d3113e402307,
    type: 2}
  m_PrefabInternal: {fileID: 0}
  m_GameObject: {fileID: 774982343}
  m_Material: {fileID: 0}
  m_IsTrigger: 0
  m_Enabled: 1
  serializedVersion: 2
  m_Size: {x: 1, y: 1, z: 1}
  m_Center: {x: 0, y: 0, z: 0}
--- !u!23 &774982346
MeshRenderer:
  m_ObjectHideFlags: 0
  m_PrefabParentObject: {fileID: 23798386200169284, guid: 869fa305735e16145ad5d3113e402307,
    type: 2}
  m_PrefabInternal: {fileID: 0}
  m_GameObject: {fileID: 774982343}
  m_Enabled: 1
  m_CastShadows: 1
  m_ReceiveShadows: 1
  m_MotionVectors: 1
  m_LightProbeUsage: 1
  m_ReflectionProbeUsage: 1
  m_Materials:
  - {fileID: 2100000, guid: 6b9d32e4d89fe2c45942fb5c17392f7c, type: 2}
  m_StaticBatchInfo:
    firstSubMesh: 0
    subMeshCount: 0
  m_StaticBatchRoot: {fileID: 0}
  m_ProbeAnchor: {fileID: 0}
  m_LightProbeVolumeOverride: {fileID: 0}
  m_ScaleInLightmap: 1
  m_PreserveUVs: 1
  m_IgnoreNormalsForChartDetection: 0
  m_ImportantGI: 0
  m_SelectedEditorRenderState: 3
  m_MinimumChartSize: 4
  m_AutoUVMaxDistance: 0.5
  m_AutoUVMaxAngle: 89
  m_LightmapParameters: {fileID: 0}
  m_SortingLayerID: 0
  m_SortingLayer: 0
  m_SortingOrder: 0
--- !u!33 &774982347
MeshFilter:
  m_ObjectHideFlags: 0
  m_PrefabParentObject: {fileID: 33178440317500974, guid: 869fa305735e16145ad5d3113e402307,
    type: 2}
  m_PrefabInternal: {fileID: 0}
  m_GameObject: {fileID: 774982343}
  m_Mesh: {fileID: 10202, guid: 0000000000000000e000000000000000, type: 0}
--- !u!1 &792525646
GameObject:
  m_ObjectHideFlags: 0
  m_PrefabParentObject: {fileID: 1512452958499864, guid: 869fa305735e16145ad5d3113e402307,
    type: 2}
  m_PrefabInternal: {fileID: 0}
  serializedVersion: 5
  m_Component:
  - component: {fileID: 792525647}
  - component: {fileID: 792525650}
  - component: {fileID: 792525649}
  - component: {fileID: 792525648}
  m_Layer: 0
  m_Name: CubeLeft
  m_TagString: Untagged
  m_Icon: {fileID: 0}
  m_NavMeshLayer: 0
  m_StaticEditorFlags: 0
  m_IsActive: 1
--- !u!4 &792525647
Transform:
  m_ObjectHideFlags: 0
  m_PrefabParentObject: {fileID: 4488959825869158, guid: 869fa305735e16145ad5d3113e402307,
    type: 2}
  m_PrefabInternal: {fileID: 0}
  m_GameObject: {fileID: 792525646}
  m_LocalRotation: {x: 0, y: 0, z: 0, w: 1}
  m_LocalPosition: {x: 0.55, y: -0.025, z: 0}
  m_LocalScale: {x: 0.1, y: 1.15, z: 0.019999996}
  m_Children: []
  m_Father: {fileID: 2056451222}
  m_RootOrder: 1
  m_LocalEulerAnglesHint: {x: 0, y: 0, z: 0}
--- !u!65 &792525648
BoxCollider:
  m_ObjectHideFlags: 0
  m_PrefabParentObject: {fileID: 65665520856789052, guid: 869fa305735e16145ad5d3113e402307,
    type: 2}
  m_PrefabInternal: {fileID: 0}
  m_GameObject: {fileID: 792525646}
  m_Material: {fileID: 0}
  m_IsTrigger: 0
  m_Enabled: 1
  serializedVersion: 2
  m_Size: {x: 1, y: 1, z: 1}
  m_Center: {x: 0, y: 0, z: 0}
--- !u!23 &792525649
MeshRenderer:
  m_ObjectHideFlags: 0
  m_PrefabParentObject: {fileID: 23071439630155720, guid: 869fa305735e16145ad5d3113e402307,
    type: 2}
  m_PrefabInternal: {fileID: 0}
  m_GameObject: {fileID: 792525646}
  m_Enabled: 1
  m_CastShadows: 1
  m_ReceiveShadows: 1
  m_MotionVectors: 1
  m_LightProbeUsage: 1
  m_ReflectionProbeUsage: 1
  m_Materials:
  - {fileID: 2100000, guid: 6b9d32e4d89fe2c45942fb5c17392f7c, type: 2}
  m_StaticBatchInfo:
    firstSubMesh: 0
    subMeshCount: 0
  m_StaticBatchRoot: {fileID: 0}
  m_ProbeAnchor: {fileID: 0}
  m_LightProbeVolumeOverride: {fileID: 0}
  m_ScaleInLightmap: 1
  m_PreserveUVs: 1
  m_IgnoreNormalsForChartDetection: 0
  m_ImportantGI: 0
  m_SelectedEditorRenderState: 3
  m_MinimumChartSize: 4
  m_AutoUVMaxDistance: 0.5
  m_AutoUVMaxAngle: 89
  m_LightmapParameters: {fileID: 0}
  m_SortingLayerID: 0
  m_SortingLayer: 0
  m_SortingOrder: 0
--- !u!33 &792525650
MeshFilter:
  m_ObjectHideFlags: 0
  m_PrefabParentObject: {fileID: 33370670292866432, guid: 869fa305735e16145ad5d3113e402307,
    type: 2}
  m_PrefabInternal: {fileID: 0}
  m_GameObject: {fileID: 792525646}
  m_Mesh: {fileID: 10202, guid: 0000000000000000e000000000000000, type: 0}
--- !u!1 &1040145170
GameObject:
  m_ObjectHideFlags: 0
  m_PrefabParentObject: {fileID: 1358304318867282, guid: 3da21ec90da15e344a3bfc2f32c4e03c,
    type: 2}
  m_PrefabInternal: {fileID: 0}
  serializedVersion: 5
  m_Component:
  - component: {fileID: 1040145171}
  - component: {fileID: 1040145174}
  - component: {fileID: 1040145173}
  - component: {fileID: 1040145172}
  m_Layer: 0
  m_Name: CubeRight
  m_TagString: Untagged
  m_Icon: {fileID: 0}
  m_NavMeshLayer: 0
  m_StaticEditorFlags: 0
  m_IsActive: 1
--- !u!4 &1040145171
Transform:
  m_ObjectHideFlags: 0
  m_PrefabParentObject: {fileID: 4511700449286538, guid: 3da21ec90da15e344a3bfc2f32c4e03c,
    type: 2}
  m_PrefabInternal: {fileID: 0}
  m_GameObject: {fileID: 1040145170}
  m_LocalRotation: {x: 0, y: 0, z: 0, w: 1}
  m_LocalPosition: {x: -0.55, y: -0.025, z: 0}
  m_LocalScale: {x: 0.1, y: 1.15, z: 0.02}
  m_Children: []
  m_Father: {fileID: 1098679074}
  m_RootOrder: 0
  m_LocalEulerAnglesHint: {x: 0, y: 0, z: 0}
--- !u!65 &1040145172
BoxCollider:
  m_ObjectHideFlags: 0
  m_PrefabParentObject: {fileID: 65174496832467716, guid: 3da21ec90da15e344a3bfc2f32c4e03c,
    type: 2}
  m_PrefabInternal: {fileID: 0}
  m_GameObject: {fileID: 1040145170}
  m_Material: {fileID: 0}
  m_IsTrigger: 0
  m_Enabled: 1
  serializedVersion: 2
  m_Size: {x: 1, y: 1, z: 1}
  m_Center: {x: 0, y: 0, z: 0}
--- !u!23 &1040145173
MeshRenderer:
  m_ObjectHideFlags: 0
  m_PrefabParentObject: {fileID: 23653601386752536, guid: 3da21ec90da15e344a3bfc2f32c4e03c,
    type: 2}
  m_PrefabInternal: {fileID: 0}
  m_GameObject: {fileID: 1040145170}
  m_Enabled: 1
  m_CastShadows: 1
  m_ReceiveShadows: 1
  m_MotionVectors: 1
  m_LightProbeUsage: 1
  m_ReflectionProbeUsage: 1
  m_Materials:
  - {fileID: 2100000, guid: a947e6a9100bd744b93f4477db6d6d3c, type: 2}
  m_StaticBatchInfo:
    firstSubMesh: 0
    subMeshCount: 0
  m_StaticBatchRoot: {fileID: 0}
  m_ProbeAnchor: {fileID: 0}
  m_LightProbeVolumeOverride: {fileID: 0}
  m_ScaleInLightmap: 1
  m_PreserveUVs: 1
  m_IgnoreNormalsForChartDetection: 0
  m_ImportantGI: 0
  m_SelectedEditorRenderState: 3
  m_MinimumChartSize: 4
  m_AutoUVMaxDistance: 0.5
  m_AutoUVMaxAngle: 89
  m_LightmapParameters: {fileID: 0}
  m_SortingLayerID: 0
  m_SortingLayer: 0
  m_SortingOrder: 0
--- !u!33 &1040145174
MeshFilter:
  m_ObjectHideFlags: 0
  m_PrefabParentObject: {fileID: 33643089829372640, guid: 3da21ec90da15e344a3bfc2f32c4e03c,
    type: 2}
  m_PrefabInternal: {fileID: 0}
  m_GameObject: {fileID: 1040145170}
  m_Mesh: {fileID: 10202, guid: 0000000000000000e000000000000000, type: 0}
--- !u!84 &1089625445
RenderTexture:
  m_ObjectHideFlags: 0
  m_PrefabParentObject: {fileID: 0}
  m_PrefabInternal: {fileID: 0}
  m_Name: SquareGate1 RenderTexture 0
  m_ImageContentsHash:
    serializedVersion: 2
    Hash: 00000000000000000000000000000000
  m_Width: 1280
  m_Height: 1024
  m_AntiAliasing: 1
  m_DepthFormat: 2
  m_ColorFormat: 0
  m_MipMap: 0
  m_GenerateMips: 1
  m_SRGB: 0
  m_TextureSettings:
    serializedVersion: 2
    m_FilterMode: 1
    m_Aniso: 0
    m_MipBias: 0
    m_WrapU: 1
    m_WrapV: 1
    m_WrapW: 1
  m_Dimension: 2
  m_VolumeDepth: 1
--- !u!1 &1098679073
GameObject:
  m_ObjectHideFlags: 0
  m_PrefabParentObject: {fileID: 1651724106167930, guid: 3da21ec90da15e344a3bfc2f32c4e03c,
    type: 2}
  m_PrefabInternal: {fileID: 0}
  serializedVersion: 5
  m_Component:
  - component: {fileID: 1098679074}
  m_Layer: 0
  m_Name: Cubes
  m_TagString: Untagged
  m_Icon: {fileID: 0}
  m_NavMeshLayer: 0
  m_StaticEditorFlags: 0
  m_IsActive: 1
--- !u!4 &1098679074
Transform:
  m_ObjectHideFlags: 0
  m_PrefabParentObject: {fileID: 4314987590505388, guid: 3da21ec90da15e344a3bfc2f32c4e03c,
    type: 2}
  m_PrefabInternal: {fileID: 0}
  m_GameObject: {fileID: 1098679073}
  m_LocalRotation: {x: -0, y: 1, z: -0, w: -0.00000014901163}
  m_LocalPosition: {x: 0, y: 0, z: -0.009999847}
  m_LocalScale: {x: 1, y: 1, z: 1}
  m_Children:
  - {fileID: 1040145171}
  - {fileID: 223958167}
  - {fileID: 381108329}
  - {fileID: 176078893}
  m_Father: {fileID: 1147408835}
  m_RootOrder: 0
  m_LocalEulerAnglesHint: {x: 0, y: 0, z: 0}
--- !u!1 &1145173713
GameObject:
  m_ObjectHideFlags: 0
  m_PrefabParentObject: {fileID: 1996968085971542, guid: 869fa305735e16145ad5d3113e402307,
    type: 2}
  m_PrefabInternal: {fileID: 0}
  serializedVersion: 5
  m_Component:
  - component: {fileID: 1145173714}
  - component: {fileID: 1145173716}
  - component: {fileID: 1145173715}
  m_Layer: 4
  m_Name: SquareGate1 SceneviewRender
  m_TagString: Untagged
  m_Icon: {fileID: 0}
  m_NavMeshLayer: 0
  m_StaticEditorFlags: 0
  m_IsActive: 1
--- !u!4 &1145173714
Transform:
  m_ObjectHideFlags: 0
  m_PrefabParentObject: {fileID: 4471268590155750, guid: 869fa305735e16145ad5d3113e402307,
    type: 2}
  m_PrefabInternal: {fileID: 0}
  m_GameObject: {fileID: 1145173713}
  m_LocalRotation: {x: -0, y: -0, z: -0, w: 1}
  m_LocalPosition: {x: 0, y: 0, z: 0.0001}
  m_LocalScale: {x: 0.99999964, y: 1, z: 0.99999964}
  m_Children: []
  m_Father: {fileID: 1843670892}
  m_RootOrder: 3
  m_LocalEulerAnglesHint: {x: 0, y: 0, z: 0}
--- !u!23 &1145173715
MeshRenderer:
  m_ObjectHideFlags: 0
  m_PrefabParentObject: {fileID: 23884721075449902, guid: 869fa305735e16145ad5d3113e402307,
    type: 2}
  m_PrefabInternal: {fileID: 0}
  m_GameObject: {fileID: 1145173713}
  m_Enabled: 1
  m_CastShadows: 1
  m_ReceiveShadows: 1
  m_MotionVectors: 1
  m_LightProbeUsage: 1
  m_ReflectionProbeUsage: 1
  m_Materials:
  - {fileID: 1670227022}
  m_StaticBatchInfo:
    firstSubMesh: 0
    subMeshCount: 0
  m_StaticBatchRoot: {fileID: 0}
  m_ProbeAnchor: {fileID: 0}
  m_LightProbeVolumeOverride: {fileID: 0}
  m_ScaleInLightmap: 1
  m_PreserveUVs: 0
  m_IgnoreNormalsForChartDetection: 0
  m_ImportantGI: 0
  m_SelectedEditorRenderState: 3
  m_MinimumChartSize: 4
  m_AutoUVMaxDistance: 0.5
  m_AutoUVMaxAngle: 89
  m_LightmapParameters: {fileID: 0}
  m_SortingLayerID: 0
  m_SortingLayer: 0
  m_SortingOrder: 0
--- !u!33 &1145173716
MeshFilter:
  m_ObjectHideFlags: 0
  m_PrefabParentObject: {fileID: 33690799995966384, guid: 869fa305735e16145ad5d3113e402307,
    type: 2}
  m_PrefabInternal: {fileID: 0}
  m_GameObject: {fileID: 1145173713}
  m_Mesh: {fileID: 10210, guid: 0000000000000000e000000000000000, type: 0}
--- !u!1 &1147408829
GameObject:
  m_ObjectHideFlags: 0
  m_PrefabParentObject: {fileID: 1043933513973582, guid: 3da21ec90da15e344a3bfc2f32c4e03c,
    type: 2}
  m_PrefabInternal: {fileID: 0}
  serializedVersion: 5
  m_Component:
  - component: {fileID: 1147408835}
  - component: {fileID: 1147408834}
  - component: {fileID: 1147408833}
  - component: {fileID: 1147408832}
  - component: {fileID: 1147408831}
  - component: {fileID: 1147408830}
  m_Layer: 1
  m_Name: SquareGate2
  m_TagString: Untagged
  m_Icon: {fileID: 0}
  m_NavMeshLayer: 0
  m_StaticEditorFlags: 0
  m_IsActive: 1
--- !u!114 &1147408830
MonoBehaviour:
  m_ObjectHideFlags: 0
  m_PrefabParentObject: {fileID: 114608877380318504, guid: 3da21ec90da15e344a3bfc2f32c4e03c,
    type: 2}
  m_PrefabInternal: {fileID: 0}
  m_GameObject: {fileID: 1147408829}
  m_Enabled: 1
  m_EditorHideFlags: 0
  m_Script: {fileID: 11500000, guid: ed48c3ac2d1fea14c972c2b216f7adb2, type: 3}
  m_Name: 
  m_EditorClassIdentifier: 
  AutoPair:
    Enable: 0
    PortalPairedName: 
  PairedPortal: {fileID: 1843670886}
  PairedPortalSkybox: {fileID: 0}
  NullPairedPortalSkybox: {fileID: 100616869}
  ViewSettings:
    Projection:
      Resolution: {x: 1280, y: 1024}
      DepthQuality: 1
      CurrentDepthQuality: 1
    Recursion:
      Steps: 1
      CustomFinalStep: {fileID: 0}
    Distorsion:
      EnableDistorsion: 0
      Pattern: {fileID: 0}
      Color: {r: 1, g: 1, b: 1, a: 1}
      Tiling: 1
      SpeedX: 0.01
      SpeedY: 0
  PortalSettings:
    EnableRender: 1
    EnableObjsTrigger: 1
    EnableClipPlane: 1
  PortalFunctionality:
    ExcludedObjsFromTrigger: []
    ExcludedObjsFromRender: []
    SceneAsyncLoad:
      Enable: 0
      SceneIndex: 0
  ClipPlanePosObj: {fileID: 664537210}
  PortalCamObjs:
  - {fileID: 1191912097}
  - {fileID: 1439802728}
  - {fileID: 0}
  - {fileID: 0}
  - {fileID: 0}
  - {fileID: 0}
  - {fileID: 0}
  - {fileID: 0}
  - {fileID: 0}
  - {fileID: 0}
  - {fileID: 0}
  - {fileID: 0}
  - {fileID: 0}
  - {fileID: 0}
  - {fileID: 0}
  - {fileID: 0}
  - {fileID: 0}
  - {fileID: 0}
  - {fileID: 0}
  - {fileID: 0}
  - {fileID: 0}
  CollidedObjsParentPreviousFirstPos: {x: 0, y: 0, z: 0}
  CollidedObjsParentPreviousSecondPos: {x: 0, y: 0, z: 0}
  CollidedObjsExternalParent: 0
  EnterTriggerTimes: 0
--- !u!54 &1147408831
Rigidbody:
  m_ObjectHideFlags: 0
  m_PrefabParentObject: {fileID: 54295818027237304, guid: 3da21ec90da15e344a3bfc2f32c4e03c,
    type: 2}
  m_PrefabInternal: {fileID: 0}
  m_GameObject: {fileID: 1147408829}
  serializedVersion: 2
  m_Mass: 1
  m_Drag: 0
  m_AngularDrag: 0
  m_UseGravity: 0
  m_IsKinematic: 1
  m_Interpolate: 0
  m_Constraints: 0
  m_CollisionDetection: 2
--- !u!64 &1147408832
MeshCollider:
  m_ObjectHideFlags: 0
  m_PrefabParentObject: {fileID: 64167078605919828, guid: 3da21ec90da15e344a3bfc2f32c4e03c,
    type: 2}
  m_PrefabInternal: {fileID: 0}
  m_GameObject: {fileID: 1147408829}
  m_Material: {fileID: 0}
  m_IsTrigger: 1
  m_Enabled: 1
  serializedVersion: 2
  m_Convex: 1
  m_InflateMesh: 0
  m_SkinWidth: 0.01
  m_Mesh: {fileID: 10210, guid: 0000000000000000e000000000000000, type: 0}
--- !u!23 &1147408833
MeshRenderer:
  m_ObjectHideFlags: 0
  m_PrefabParentObject: {fileID: 23893539467755916, guid: 3da21ec90da15e344a3bfc2f32c4e03c,
    type: 2}
  m_PrefabInternal: {fileID: 0}
  m_GameObject: {fileID: 1147408829}
  m_Enabled: 1
  m_CastShadows: 0
  m_ReceiveShadows: 0
  m_MotionVectors: 1
  m_LightProbeUsage: 1
  m_ReflectionProbeUsage: 1
  m_Materials:
  - {fileID: 576775104}
  m_StaticBatchInfo:
    firstSubMesh: 0
    subMeshCount: 0
  m_StaticBatchRoot: {fileID: 0}
  m_ProbeAnchor: {fileID: 0}
  m_LightProbeVolumeOverride: {fileID: 0}
  m_ScaleInLightmap: 1
  m_PreserveUVs: 0
  m_IgnoreNormalsForChartDetection: 0
  m_ImportantGI: 0
  m_SelectedEditorRenderState: 3
  m_MinimumChartSize: 4
  m_AutoUVMaxDistance: 0.5
  m_AutoUVMaxAngle: 89
  m_LightmapParameters: {fileID: 0}
  m_SortingLayerID: 0
  m_SortingLayer: 0
  m_SortingOrder: 0
--- !u!33 &1147408834
MeshFilter:
  m_ObjectHideFlags: 0
  m_PrefabParentObject: {fileID: 33022505426215716, guid: 3da21ec90da15e344a3bfc2f32c4e03c,
    type: 2}
  m_PrefabInternal: {fileID: 0}
  m_GameObject: {fileID: 1147408829}
  m_Mesh: {fileID: 10210, guid: 0000000000000000e000000000000000, type: 0}
--- !u!4 &1147408835
Transform:
  m_ObjectHideFlags: 0
  m_PrefabParentObject: {fileID: 4313736347473812, guid: 3da21ec90da15e344a3bfc2f32c4e03c,
    type: 2}
  m_PrefabInternal: {fileID: 0}
  m_GameObject: {fileID: 1147408829}
  m_LocalRotation: {x: 0, y: -0.7071068, z: 0, w: 0.7071067}
  m_LocalPosition: {x: 23, y: 0.21, z: -0}
  m_LocalScale: {x: 5, y: 5, z: 5}
  m_Children:
  - {fileID: 1098679074}
  - {fileID: 664537211}
  - {fileID: 1191912100}
  - {fileID: 87239904}
  - {fileID: 1439802731}
  m_Father: {fileID: 0}
  m_RootOrder: 6
  m_LocalEulerAnglesHint: {x: 0, y: 0, z: 0}
--- !u!21 &1158628402
Material:
  serializedVersion: 6
  m_ObjectHideFlags: 0
  m_PrefabParentObject: {fileID: 0}
  m_PrefabInternal: {fileID: 0}
  m_Name: Gater/UV Remap
  m_Shader: {fileID: 4800000, guid: b680c2f39420847458548a216d96ce3a, type: 3}
  m_ShaderKeywords: 
  m_LightmapFlags: 4
  m_EnableInstancingVariants: 0
  m_DoubleSidedGI: 0
  m_CustomRenderQueue: -1
  stringTagMap: {}
  disabledShaderPasses: []
  m_SavedProperties:
    serializedVersion: 3
    m_TexEnvs:
    - _DistorsionPattern:
        m_Texture: {fileID: 0}
        m_Scale: {x: 1, y: 1}
        m_Offset: {x: 0, y: 0}
    - _MainTex:
        m_Texture: {fileID: 722247843}
        m_Scale: {x: 1, y: 1}
        m_Offset: {x: 0, y: 0}
    m_Floats:
    - _DistorsionPatternSpeedX: 0
    - _DistorsionPatternSpeedY: 0
    - _DistorsionPatternTiling: 1
    - _EnableDistorsionPattern: 0
    m_Colors:
    - _DistorsionPatternColor: {r: 1, g: 0, b: 0, a: 1}
--- !u!1 &1191912097
GameObject:
  m_ObjectHideFlags: 0
  m_PrefabParentObject: {fileID: 1945544739381760, guid: 3da21ec90da15e344a3bfc2f32c4e03c,
    type: 2}
  m_PrefabInternal: {fileID: 0}
  serializedVersion: 5
  m_Component:
  - component: {fileID: 1191912100}
  - component: {fileID: 1191912099}
  - component: {fileID: 1191912098}
  m_Layer: 0
  m_Name: SquareGate2 Camera 0
  m_TagString: Untagged
  m_Icon: {fileID: 0}
  m_NavMeshLayer: 0
  m_StaticEditorFlags: 0
  m_IsActive: 1
--- !u!45 &1191912098
Skybox:
  m_ObjectHideFlags: 0
  m_PrefabParentObject: {fileID: 45989505051722576, guid: 3da21ec90da15e344a3bfc2f32c4e03c,
    type: 2}
  m_PrefabInternal: {fileID: 0}
  m_GameObject: {fileID: 1191912097}
  m_Enabled: 1
  m_CustomSkybox: {fileID: 0}
--- !u!20 &1191912099
Camera:
  m_ObjectHideFlags: 0
  m_PrefabParentObject: {fileID: 20052972291112768, guid: 3da21ec90da15e344a3bfc2f32c4e03c,
    type: 2}
  m_PrefabInternal: {fileID: 0}
  m_GameObject: {fileID: 1191912097}
  m_Enabled: 0
  serializedVersion: 2
  m_ClearFlags: 1
  m_BackGroundColor: {r: 0.19215687, g: 0.3019608, b: 0.4745098, a: 0}
  m_NormalizedViewPortRect:
    serializedVersion: 2
    x: 0
    y: 0
    width: 1
    height: 1
  near clip plane: 0.01
  far clip plane: 1000
  field of view: 60
  orthographic: 0
  orthographic size: 5
  m_Depth: -1
  m_CullingMask:
    serializedVersion: 2
    m_Bits: 4294967293
  m_RenderingPath: -1
  m_TargetTexture: {fileID: 0}
  m_TargetDisplay: 0
  m_TargetEye: 3
  m_HDR: 0
  m_AllowMSAA: 0
  m_ForceIntoRT: 0
  m_OcclusionCulling: 0
  m_StereoConvergence: 10
  m_StereoSeparation: 0.022
  m_StereoMirrorMode: 0
--- !u!4 &1191912100
Transform:
  m_ObjectHideFlags: 0
  m_PrefabParentObject: {fileID: 4100163430450664, guid: 3da21ec90da15e344a3bfc2f32c4e03c,
    type: 2}
  m_PrefabInternal: {fileID: 0}
  m_GameObject: {fileID: 1191912097}
  m_LocalRotation: {x: 0, y: 0.7071068, z: 0, w: 0.7071068}
  m_LocalPosition: {x: 0.00000038146973, y: -0.042, z: -4.6}
  m_LocalScale: {x: 0.2, y: 0.2, z: 0.2}
  m_Children: []
  m_Father: {fileID: 1147408835}
  m_RootOrder: 2
  m_LocalEulerAnglesHint: {x: 0, y: 0, z: 0}
--- !u!1 &1224618279
GameObject:
  m_ObjectHideFlags: 0
  m_PrefabParentObject: {fileID: 1039129011694566, guid: 869fa305735e16145ad5d3113e402307,
    type: 2}
  m_PrefabInternal: {fileID: 0}
  serializedVersion: 5
  m_Component:
  - component: {fileID: 1224618280}
  m_Layer: 0
  m_Name: SquareGate1 ClipPlanePosObj
  m_TagString: Untagged
  m_Icon: {fileID: 0}
  m_NavMeshLayer: 0
  m_StaticEditorFlags: 0
  m_IsActive: 1
--- !u!4 &1224618280
Transform:
  m_ObjectHideFlags: 0
  m_PrefabParentObject: {fileID: 4570560005342302, guid: 869fa305735e16145ad5d3113e402307,
    type: 2}
  m_PrefabInternal: {fileID: 0}
  m_GameObject: {fileID: 1224618279}
  m_LocalRotation: {x: -0, y: -0, z: -0, w: 1}
  m_LocalPosition: {x: 0, y: 0, z: 0.005}
  m_LocalScale: {x: 0.19999999, y: 0.2, z: 0.19999999}
  m_Children: []
  m_Father: {fileID: 1843670892}
  m_RootOrder: 1
  m_LocalEulerAnglesHint: {x: 0, y: 0, z: 0}
--- !u!1 &1353051840
GameObject:
  m_ObjectHideFlags: 0
  m_PrefabParentObject: {fileID: 0}
  m_PrefabInternal: {fileID: 0}
  serializedVersion: 5
  m_Component:
  - component: {fileID: 1353051844}
  - component: {fileID: 1353051843}
  - component: {fileID: 1353051841}
  - component: {fileID: 1353051845}
  - component: {fileID: 1353051842}
  m_Layer: 0
  m_Name: Cube2
  m_TagString: Untagged
  m_Icon: {fileID: 0}
  m_NavMeshLayer: 0
  m_StaticEditorFlags: 0
  m_IsActive: 1
--- !u!23 &1353051841
MeshRenderer:
  m_ObjectHideFlags: 0
  m_PrefabParentObject: {fileID: 0}
  m_PrefabInternal: {fileID: 0}
  m_GameObject: {fileID: 1353051840}
  m_Enabled: 1
  m_CastShadows: 1
  m_ReceiveShadows: 1
  m_MotionVectors: 1
  m_LightProbeUsage: 1
  m_ReflectionProbeUsage: 1
  m_Materials:
  - {fileID: 2100000, guid: a947e6a9100bd744b93f4477db6d6d3c, type: 2}
  m_StaticBatchInfo:
    firstSubMesh: 0
    subMeshCount: 0
  m_StaticBatchRoot: {fileID: 0}
  m_ProbeAnchor: {fileID: 0}
  m_LightProbeVolumeOverride: {fileID: 0}
  m_ScaleInLightmap: 1
  m_PreserveUVs: 1
  m_IgnoreNormalsForChartDetection: 0
  m_ImportantGI: 0
  m_SelectedEditorRenderState: 3
  m_MinimumChartSize: 4
  m_AutoUVMaxDistance: 0.5
  m_AutoUVMaxAngle: 89
  m_LightmapParameters: {fileID: 0}
  m_SortingLayerID: 0
  m_SortingLayer: 0
  m_SortingOrder: 0
--- !u!54 &1353051842
Rigidbody:
  m_ObjectHideFlags: 0
  m_PrefabParentObject: {fileID: 0}
  m_PrefabInternal: {fileID: 0}
  m_GameObject: {fileID: 1353051840}
  serializedVersion: 2
  m_Mass: 1
  m_Drag: 0
  m_AngularDrag: 0
  m_UseGravity: 1
  m_IsKinematic: 0
  m_Interpolate: 0
  m_Constraints: 0
  m_CollisionDetection: 2
--- !u!33 &1353051843
MeshFilter:
  m_ObjectHideFlags: 0
  m_PrefabParentObject: {fileID: 0}
  m_PrefabInternal: {fileID: 0}
  m_GameObject: {fileID: 1353051840}
  m_Mesh: {fileID: 10202, guid: 0000000000000000e000000000000000, type: 0}
--- !u!4 &1353051844
Transform:
  m_ObjectHideFlags: 0
  m_PrefabParentObject: {fileID: 0}
  m_PrefabInternal: {fileID: 0}
  m_GameObject: {fileID: 1353051840}
  m_LocalRotation: {x: 0, y: 0, z: 0, w: 1}
  m_LocalPosition: {x: 30, y: -1.85, z: 0}
  m_LocalScale: {x: 1, y: 1, z: 1}
  m_Children: []
  m_Father: {fileID: 0}
  m_RootOrder: 4
  m_LocalEulerAnglesHint: {x: 0, y: 0, z: 0}
--- !u!65 &1353051845
BoxCollider:
  m_ObjectHideFlags: 0
  m_PrefabParentObject: {fileID: 0}
  m_PrefabInternal: {fileID: 0}
  m_GameObject: {fileID: 1353051840}
  m_Material: {fileID: 0}
  m_IsTrigger: 0
  m_Enabled: 1
  serializedVersion: 2
  m_Size: {x: 0.9999999, y: 1, z: 0.9999999}
  m_Center: {x: 0, y: 0, z: 0}
--- !u!1001 &1437311993
Prefab:
  m_ObjectHideFlags: 0
  serializedVersion: 2
  m_Modification:
    m_TransformParent: {fileID: 0}
    m_Modifications:
    - target: {fileID: 400000, guid: 5e9e851c0e142814dac026a256ba2ac0, type: 2}
      propertyPath: m_LocalPosition.x
      value: -35
      objectReference: {fileID: 0}
    - target: {fileID: 400000, guid: 5e9e851c0e142814dac026a256ba2ac0, type: 2}
      propertyPath: m_LocalPosition.y
      value: -1.05
      objectReference: {fileID: 0}
    - target: {fileID: 400000, guid: 5e9e851c0e142814dac026a256ba2ac0, type: 2}
      propertyPath: m_LocalPosition.z
      value: 0
      objectReference: {fileID: 0}
    - target: {fileID: 400000, guid: 5e9e851c0e142814dac026a256ba2ac0, type: 2}
      propertyPath: m_LocalRotation.x
      value: 0
      objectReference: {fileID: 0}
    - target: {fileID: 400000, guid: 5e9e851c0e142814dac026a256ba2ac0, type: 2}
      propertyPath: m_LocalRotation.y
      value: 0.7071068
      objectReference: {fileID: 0}
    - target: {fileID: 400000, guid: 5e9e851c0e142814dac026a256ba2ac0, type: 2}
      propertyPath: m_LocalRotation.z
      value: 0
      objectReference: {fileID: 0}
    - target: {fileID: 400000, guid: 5e9e851c0e142814dac026a256ba2ac0, type: 2}
      propertyPath: m_LocalRotation.w
      value: 0.7071068
      objectReference: {fileID: 0}
    - target: {fileID: 400000, guid: 5e9e851c0e142814dac026a256ba2ac0, type: 2}
      propertyPath: m_RootOrder
      value: 0
      objectReference: {fileID: 0}
    - target: {fileID: 5400000, guid: 5e9e851c0e142814dac026a256ba2ac0, type: 2}
      propertyPath: m_CollisionDetection
      value: 2
      objectReference: {fileID: 0}
    - target: {fileID: 400000, guid: 5e9e851c0e142814dac026a256ba2ac0, type: 2}
      propertyPath: m_LocalEulerAnglesHint.y
      value: 90
      objectReference: {fileID: 0}
    - target: {fileID: 2000000, guid: 5e9e851c0e142814dac026a256ba2ac0, type: 2}
      propertyPath: m_AllowMSAA
      value: 0
      objectReference: {fileID: 0}
    m_RemovedComponents: []
  m_ParentPrefab: {fileID: 100100000, guid: 5e9e851c0e142814dac026a256ba2ac0, type: 2}
  m_IsPrefabParent: 0
--- !u!1 &1439802728
GameObject:
  m_ObjectHideFlags: 0
  m_PrefabParentObject: {fileID: 0}
  m_PrefabInternal: {fileID: 0}
  serializedVersion: 5
  m_Component:
  - component: {fileID: 1439802731}
  - component: {fileID: 1439802730}
  - component: {fileID: 1439802729}
  m_Layer: 0
  m_Name: SquareGate2 Camera 1
  m_TagString: Untagged
  m_Icon: {fileID: 0}
  m_NavMeshLayer: 0
  m_StaticEditorFlags: 0
  m_IsActive: 1
--- !u!45 &1439802729
Skybox:
  m_ObjectHideFlags: 0
  m_PrefabParentObject: {fileID: 0}
  m_PrefabInternal: {fileID: 0}
  m_GameObject: {fileID: 1439802728}
  m_Enabled: 1
  m_CustomSkybox: {fileID: 2043166176}
--- !u!20 &1439802730
Camera:
  m_ObjectHideFlags: 0
  m_PrefabParentObject: {fileID: 0}
  m_PrefabInternal: {fileID: 0}
  m_GameObject: {fileID: 1439802728}
  m_Enabled: 0
  serializedVersion: 2
  m_ClearFlags: 1
  m_BackGroundColor: {r: 0.19215687, g: 0.3019608, b: 0.4745098, a: 0}
  m_NormalizedViewPortRect:
    serializedVersion: 2
    x: 0
    y: 0
    width: 1
    height: 1
  near clip plane: 0.01
  far clip plane: 1000
  field of view: 60
  orthographic: 0
  orthographic size: 5
  m_Depth: -1
  m_CullingMask:
    serializedVersion: 2
    m_Bits: 0
  m_RenderingPath: -1
  m_TargetTexture: {fileID: 0}
  m_TargetDisplay: 0
  m_TargetEye: 3
  m_HDR: 0
  m_AllowMSAA: 0
  m_ForceIntoRT: 0
  m_OcclusionCulling: 0
  m_StereoConvergence: 10
  m_StereoSeparation: 0.022
  m_StereoMirrorMode: 0
--- !u!4 &1439802731
Transform:
  m_ObjectHideFlags: 0
  m_PrefabParentObject: {fileID: 0}
  m_PrefabInternal: {fileID: 0}
  m_GameObject: {fileID: 1439802728}
  m_LocalRotation: {x: 0, y: 0.7071068, z: 0, w: 0.7071068}
  m_LocalPosition: {x: 0.00000038146973, y: -0.042, z: 4.6}
  m_LocalScale: {x: 0.19999997, y: 0.2, z: 0.19999997}
  m_Children: []
  m_Father: {fileID: 1147408835}
  m_RootOrder: 4
  m_LocalEulerAnglesHint: {x: 0, y: 0, z: 0}
--- !u!84 &1545356587
RenderTexture:
  m_ObjectHideFlags: 0
  m_PrefabParentObject: {fileID: 0}
  m_PrefabInternal: {fileID: 0}
  m_Name: SquareGate2 RenderTexture 0
  m_ImageContentsHash:
    serializedVersion: 2
    Hash: 00000000000000000000000000000000
  m_Width: 1280
  m_Height: 1024
  m_AntiAliasing: 1
  m_DepthFormat: 2
  m_ColorFormat: 0
  m_MipMap: 0
  m_GenerateMips: 1
  m_SRGB: 0
  m_TextureSettings:
    serializedVersion: 2
    m_FilterMode: 1
    m_Aniso: 0
    m_MipBias: 0
    m_WrapU: 1
    m_WrapV: 1
    m_WrapW: 1
  m_Dimension: 2
  m_VolumeDepth: 1
--- !u!21 &1670227022
Material:
  serializedVersion: 6
  m_ObjectHideFlags: 0
  m_PrefabParentObject: {fileID: 0}
  m_PrefabInternal: {fileID: 0}
  m_Name: Gater/UV Remap
  m_Shader: {fileID: 4800000, guid: b680c2f39420847458548a216d96ce3a, type: 3}
  m_ShaderKeywords: 
  m_LightmapFlags: 4
  m_EnableInstancingVariants: 0
  m_DoubleSidedGI: 0
  m_CustomRenderQueue: -1
  stringTagMap: {}
  disabledShaderPasses: []
  m_SavedProperties:
    serializedVersion: 3
    m_TexEnvs:
    - _DistorsionPattern:
        m_Texture: {fileID: 0}
        m_Scale: {x: 1, y: 1}
        m_Offset: {x: 0, y: 0}
    - _MainTex:
        m_Texture: {fileID: 759830820}
        m_Scale: {x: 1, y: 1}
        m_Offset: {x: 0, y: 0}
    m_Floats:
    - _DistorsionPatternSpeedX: 0
    - _DistorsionPatternSpeedY: 0
    - _DistorsionPatternTiling: 1
    - _EnableDistorsionPattern: 0
    m_Colors:
    - _DistorsionPatternColor: {r: 1, g: 0, b: 0, a: 1}
--- !u!1 &1703792601
GameObject:
  m_ObjectHideFlags: 0
  m_PrefabParentObject: {fileID: 1946250927758538, guid: 869fa305735e16145ad5d3113e402307,
    type: 2}
  m_PrefabInternal: {fileID: 0}
  serializedVersion: 5
  m_Component:
  - component: {fileID: 1703792602}
  - component: {fileID: 1703792605}
  - component: {fileID: 1703792604}
  - component: {fileID: 1703792603}
  m_Layer: 0
  m_Name: CubeUp
  m_TagString: Untagged
  m_Icon: {fileID: 0}
  m_NavMeshLayer: 0
  m_StaticEditorFlags: 0
  m_IsActive: 1
--- !u!4 &1703792602
Transform:
  m_ObjectHideFlags: 0
  m_PrefabParentObject: {fileID: 4335233958127508, guid: 869fa305735e16145ad5d3113e402307,
    type: 2}
  m_PrefabInternal: {fileID: 0}
  m_GameObject: {fileID: 1703792601}
  m_LocalRotation: {x: 0.000000029802322, y: -0.000000059604645, z: 0.7071068, w: 0.70710677}
  m_LocalPosition: {x: 0, y: 0.5, z: 0}
  m_LocalScale: {x: 0.1, y: 1, z: 0.02}
  m_Children: []
  m_Father: {fileID: 2056451222}
  m_RootOrder: 3
  m_LocalEulerAnglesHint: {x: 0, y: 0, z: 0}
--- !u!65 &1703792603
BoxCollider:
  m_ObjectHideFlags: 0
  m_PrefabParentObject: {fileID: 65130534954506926, guid: 869fa305735e16145ad5d3113e402307,
    type: 2}
  m_PrefabInternal: {fileID: 0}
  m_GameObject: {fileID: 1703792601}
  m_Material: {fileID: 0}
  m_IsTrigger: 0
  m_Enabled: 1
  serializedVersion: 2
  m_Size: {x: 0.99999994, y: 0.99999994, z: 0.99999994}
  m_Center: {x: 0, y: 0, z: 0}
--- !u!23 &1703792604
MeshRenderer:
  m_ObjectHideFlags: 0
  m_PrefabParentObject: {fileID: 23828440979448108, guid: 869fa305735e16145ad5d3113e402307,
    type: 2}
  m_PrefabInternal: {fileID: 0}
  m_GameObject: {fileID: 1703792601}
  m_Enabled: 1
  m_CastShadows: 1
  m_ReceiveShadows: 1
  m_MotionVectors: 1
  m_LightProbeUsage: 1
  m_ReflectionProbeUsage: 1
  m_Materials:
  - {fileID: 2100000, guid: 6b9d32e4d89fe2c45942fb5c17392f7c, type: 2}
  m_StaticBatchInfo:
    firstSubMesh: 0
    subMeshCount: 0
  m_StaticBatchRoot: {fileID: 0}
  m_ProbeAnchor: {fileID: 0}
  m_LightProbeVolumeOverride: {fileID: 0}
  m_ScaleInLightmap: 1
  m_PreserveUVs: 1
  m_IgnoreNormalsForChartDetection: 0
  m_ImportantGI: 0
  m_SelectedEditorRenderState: 3
  m_MinimumChartSize: 4
  m_AutoUVMaxDistance: 0.5
  m_AutoUVMaxAngle: 89
  m_LightmapParameters: {fileID: 0}
  m_SortingLayerID: 0
  m_SortingLayer: 0
  m_SortingOrder: 0
--- !u!33 &1703792605
MeshFilter:
  m_ObjectHideFlags: 0
  m_PrefabParentObject: {fileID: 33427803679642174, guid: 869fa305735e16145ad5d3113e402307,
    type: 2}
  m_PrefabInternal: {fileID: 0}
  m_GameObject: {fileID: 1703792601}
  m_Mesh: {fileID: 10202, guid: 0000000000000000e000000000000000, type: 0}
--- !u!1 &1829245022
GameObject:
  m_ObjectHideFlags: 0
  m_PrefabParentObject: {fileID: 0}
  m_PrefabInternal: {fileID: 0}
  serializedVersion: 5
  m_Component:
  - component: {fileID: 1829245024}
  - component: {fileID: 1829245023}
  m_Layer: 0
  m_Name: Directional Light
  m_TagString: Untagged
  m_Icon: {fileID: 0}
  m_NavMeshLayer: 0
  m_StaticEditorFlags: 0
  m_IsActive: 1
--- !u!108 &1829245023
Light:
  m_ObjectHideFlags: 0
  m_PrefabParentObject: {fileID: 0}
  m_PrefabInternal: {fileID: 0}
  m_GameObject: {fileID: 1829245022}
  m_Enabled: 1
  serializedVersion: 8
  m_Type: 1
  m_Color: {r: 1, g: 0.95686275, b: 0.8392157, a: 1}
  m_Intensity: 0.6
  m_Range: 10
  m_SpotAngle: 30
  m_CookieSize: 10
  m_Shadows:
    m_Type: 0
    m_Resolution: -1
    m_CustomResolution: -1
    m_Strength: 1
    m_Bias: 0.05
    m_NormalBias: 0.4
    m_NearPlane: 0.2
  m_Cookie: {fileID: 0}
  m_DrawHalo: 0
  m_Flare: {fileID: 0}
  m_RenderMode: 0
  m_CullingMask:
    serializedVersion: 2
    m_Bits: 4294967295
  m_Lightmapping: 4
  m_AreaSize: {x: 1, y: 1}
  m_BounceIntensity: 1
  m_FalloffTable:
    m_Table[0]: 0
    m_Table[1]: 0
    m_Table[2]: 0
    m_Table[3]: 0
    m_Table[4]: 0
    m_Table[5]: 0
    m_Table[6]: 0
    m_Table[7]: 0
    m_Table[8]: 0
    m_Table[9]: 0
    m_Table[10]: 0
    m_Table[11]: 0
    m_Table[12]: 0
  m_ColorTemperature: 6570
  m_UseColorTemperature: 0
  m_ShadowRadius: 0
  m_ShadowAngle: 0
--- !u!4 &1829245024
Transform:
  m_ObjectHideFlags: 0
  m_PrefabParentObject: {fileID: 0}
  m_PrefabInternal: {fileID: 0}
  m_GameObject: {fileID: 1829245022}
  m_LocalRotation: {x: 0.20906463, y: 0.25268403, z: -0.056018706, w: 0.9430295}
  m_LocalPosition: {x: 0, y: 3, z: 0}
  m_LocalScale: {x: 1, y: 1, z: 1}
  m_Children: []
  m_Father: {fileID: 0}
  m_RootOrder: 1
  m_LocalEulerAnglesHint: {x: 0, y: 0, z: 0}
--- !u!1 &1841222202
GameObject:
  m_ObjectHideFlags: 0
  m_PrefabParentObject: {fileID: 1288229441412674, guid: 869fa305735e16145ad5d3113e402307,
    type: 2}
  m_PrefabInternal: {fileID: 0}
  serializedVersion: 5
  m_Component:
  - component: {fileID: 1841222205}
  - component: {fileID: 1841222204}
  - component: {fileID: 1841222203}
  m_Layer: 0
  m_Name: SquareGate1 Camera 0
  m_TagString: Untagged
  m_Icon: {fileID: 0}
  m_NavMeshLayer: 0
  m_StaticEditorFlags: 0
  m_IsActive: 1
--- !u!45 &1841222203
Skybox:
  m_ObjectHideFlags: 0
  m_PrefabParentObject: {fileID: 45532588041306626, guid: 869fa305735e16145ad5d3113e402307,
    type: 2}
  m_PrefabInternal: {fileID: 0}
  m_GameObject: {fileID: 1841222202}
  m_Enabled: 1
  m_CustomSkybox: {fileID: 0}
--- !u!20 &1841222204
Camera:
  m_ObjectHideFlags: 0
  m_PrefabParentObject: {fileID: 20656981532475826, guid: 869fa305735e16145ad5d3113e402307,
    type: 2}
  m_PrefabInternal: {fileID: 0}
  m_GameObject: {fileID: 1841222202}
  m_Enabled: 0
  serializedVersion: 2
  m_ClearFlags: 1
  m_BackGroundColor: {r: 0.19215687, g: 0.3019608, b: 0.4745098, a: 0}
  m_NormalizedViewPortRect:
    serializedVersion: 2
    x: 0
    y: 0
    width: 1
    height: 1
  near clip plane: 0.01
  far clip plane: 1000
  field of view: 60
  orthographic: 0
  orthographic size: 5
  m_Depth: -1
  m_CullingMask:
    serializedVersion: 2
    m_Bits: 4294967293
  m_RenderingPath: -1
  m_TargetTexture: {fileID: 0}
  m_TargetDisplay: 0
  m_TargetEye: 3
  m_HDR: 0
  m_AllowMSAA: 0
  m_ForceIntoRT: 0
  m_OcclusionCulling: 0
  m_StereoConvergence: 10
  m_StereoSeparation: 0.022
  m_StereoMirrorMode: 0
--- !u!4 &1841222205
Transform:
  m_ObjectHideFlags: 0
  m_PrefabParentObject: {fileID: 4925113474928534, guid: 869fa305735e16145ad5d3113e402307,
    type: 2}
  m_PrefabInternal: {fileID: 0}
  m_GameObject: {fileID: 1841222202}
  m_LocalRotation: {x: 0, y: 0.70710665, z: 0, w: -0.7071069}
  m_LocalPosition: {x: -0.00000038146973, y: -0.042, z: -4.6}
  m_LocalScale: {x: 0.2, y: 0.2, z: 0.2}
  m_Children: []
  m_Father: {fileID: 1843670892}
  m_RootOrder: 2
  m_LocalEulerAnglesHint: {x: 0, y: 0, z: 0}
--- !u!1 &1843670886
GameObject:
  m_ObjectHideFlags: 0
  m_PrefabParentObject: {fileID: 1228028284005204, guid: 869fa305735e16145ad5d3113e402307,
    type: 2}
  m_PrefabInternal: {fileID: 0}
  serializedVersion: 5
  m_Component:
  - component: {fileID: 1843670892}
  - component: {fileID: 1843670891}
  - component: {fileID: 1843670890}
  - component: {fileID: 1843670889}
  - component: {fileID: 1843670888}
  - component: {fileID: 1843670887}
  m_Layer: 1
  m_Name: SquareGate1
  m_TagString: Untagged
  m_Icon: {fileID: 0}
  m_NavMeshLayer: 0
  m_StaticEditorFlags: 0
  m_IsActive: 1
--- !u!114 &1843670887
MonoBehaviour:
  m_ObjectHideFlags: 0
  m_PrefabParentObject: {fileID: 114611778767376894, guid: 869fa305735e16145ad5d3113e402307,
    type: 2}
  m_PrefabInternal: {fileID: 0}
  m_GameObject: {fileID: 1843670886}
  m_Enabled: 1
  m_EditorHideFlags: 0
  m_Script: {fileID: 11500000, guid: ed48c3ac2d1fea14c972c2b216f7adb2, type: 3}
  m_Name: 
  m_EditorClassIdentifier: 
  AutoPair:
    Enable: 0
    PortalPairedName: 
  PairedPortal: {fileID: 1147408829}
  PairedPortalSkybox: {fileID: 0}
  NullPairedPortalSkybox: {fileID: 2043166176}
  ViewSettings:
    Projection:
      Resolution: {x: 1280, y: 1024}
      DepthQuality: 1
      CurrentDepthQuality: 1
    Recursion:
      Steps: 1
      CustomFinalStep: {fileID: 0}
    Distorsion:
      EnableDistorsion: 0
      Pattern: {fileID: 0}
      Color: {r: 1, g: 1, b: 1, a: 1}
      Tiling: 1
      SpeedX: 0.01
      SpeedY: 0
  PortalSettings:
    EnableRender: 1
    EnableObjsTrigger: 1
    EnableClipPlane: 1
  PortalFunctionality:
    ExcludedObjsFromTrigger: []
    ExcludedObjsFromRender: []
    SceneAsyncLoad:
      Enable: 0
      SceneIndex: 0
  ClipPlanePosObj: {fileID: 1224618279}
  PortalCamObjs:
  - {fileID: 1841222202}
  - {fileID: 710814632}
  - {fileID: 0}
  - {fileID: 0}
  - {fileID: 0}
  - {fileID: 0}
  - {fileID: 0}
  - {fileID: 0}
  - {fileID: 0}
  - {fileID: 0}
  - {fileID: 0}
  - {fileID: 0}
  - {fileID: 0}
  - {fileID: 0}
  - {fileID: 0}
  - {fileID: 0}
  - {fileID: 0}
  - {fileID: 0}
  - {fileID: 0}
  - {fileID: 0}
  - {fileID: 0}
  CollidedObjsParentPreviousFirstPos: {x: 0, y: 0, z: 0}
  CollidedObjsParentPreviousSecondPos: {x: 0, y: 0, z: 0}
  CollidedObjsExternalParent: 0
  EnterTriggerTimes: 0
--- !u!54 &1843670888
Rigidbody:
  m_ObjectHideFlags: 0
  m_PrefabParentObject: {fileID: 54326178904984224, guid: 869fa305735e16145ad5d3113e402307,
    type: 2}
  m_PrefabInternal: {fileID: 0}
  m_GameObject: {fileID: 1843670886}
  serializedVersion: 2
  m_Mass: 1
  m_Drag: 0
  m_AngularDrag: 0
  m_UseGravity: 0
  m_IsKinematic: 1
  m_Interpolate: 0
  m_Constraints: 0
  m_CollisionDetection: 2
--- !u!64 &1843670889
MeshCollider:
  m_ObjectHideFlags: 0
  m_PrefabParentObject: {fileID: 64731828228241704, guid: 869fa305735e16145ad5d3113e402307,
    type: 2}
  m_PrefabInternal: {fileID: 0}
  m_GameObject: {fileID: 1843670886}
  m_Material: {fileID: 0}
  m_IsTrigger: 1
  m_Enabled: 1
  serializedVersion: 2
  m_Convex: 1
  m_InflateMesh: 0
  m_SkinWidth: 0.01
  m_Mesh: {fileID: 10210, guid: 0000000000000000e000000000000000, type: 0}
--- !u!23 &1843670890
MeshRenderer:
  m_ObjectHideFlags: 0
  m_PrefabParentObject: {fileID: 23838703736682264, guid: 869fa305735e16145ad5d3113e402307,
    type: 2}
  m_PrefabInternal: {fileID: 0}
  m_GameObject: {fileID: 1843670886}
  m_Enabled: 1
  m_CastShadows: 0
  m_ReceiveShadows: 0
  m_MotionVectors: 1
  m_LightProbeUsage: 1
  m_ReflectionProbeUsage: 1
  m_Materials:
  - {fileID: 248981729}
  m_StaticBatchInfo:
    firstSubMesh: 0
    subMeshCount: 0
  m_StaticBatchRoot: {fileID: 0}
  m_ProbeAnchor: {fileID: 0}
  m_LightProbeVolumeOverride: {fileID: 0}
  m_ScaleInLightmap: 1
  m_PreserveUVs: 0
  m_IgnoreNormalsForChartDetection: 0
  m_ImportantGI: 0
  m_SelectedEditorRenderState: 3
  m_MinimumChartSize: 4
  m_AutoUVMaxDistance: 0.5
  m_AutoUVMaxAngle: 89
  m_LightmapParameters: {fileID: 0}
  m_SortingLayerID: 0
  m_SortingLayer: 0
  m_SortingOrder: 0
--- !u!33 &1843670891
MeshFilter:
  m_ObjectHideFlags: 0
  m_PrefabParentObject: {fileID: 33508732982476090, guid: 869fa305735e16145ad5d3113e402307,
    type: 2}
  m_PrefabInternal: {fileID: 0}
  m_GameObject: {fileID: 1843670886}
  m_Mesh: {fileID: 10210, guid: 0000000000000000e000000000000000, type: 0}
--- !u!4 &1843670892
Transform:
  m_ObjectHideFlags: 0
  m_PrefabParentObject: {fileID: 4718505088638798, guid: 869fa305735e16145ad5d3113e402307,
    type: 2}
  m_PrefabInternal: {fileID: 0}
  m_GameObject: {fileID: 1843670886}
  m_LocalRotation: {x: 0, y: 0.7071068, z: 0, w: 0.7071067}
  m_LocalPosition: {x: -23, y: 0.21, z: -0}
  m_LocalScale: {x: 5, y: 5, z: 5}
  m_Children:
  - {fileID: 2056451222}
  - {fileID: 1224618280}
  - {fileID: 1841222205}
  - {fileID: 1145173714}
  - {fileID: 710814635}
  m_Father: {fileID: 0}
  m_RootOrder: 5
  m_LocalEulerAnglesHint: {x: 0, y: 0, z: 0}
--- !u!1 &1870571618
GameObject:
  m_ObjectHideFlags: 0
  m_PrefabParentObject: {fileID: 0}
  m_PrefabInternal: {fileID: 0}
  serializedVersion: 5
  m_Component:
  - component: {fileID: 1870571622}
  - component: {fileID: 1870571621}
  - component: {fileID: 1870571619}
  - component: {fileID: 1870571620}
  m_Layer: 0
  m_Name: Terrain
  m_TagString: Untagged
  m_Icon: {fileID: 0}
  m_NavMeshLayer: 0
  m_StaticEditorFlags: 0
  m_IsActive: 1
--- !u!23 &1870571619
MeshRenderer:
  m_ObjectHideFlags: 0
  m_PrefabParentObject: {fileID: 0}
  m_PrefabInternal: {fileID: 0}
  m_GameObject: {fileID: 1870571618}
  m_Enabled: 1
  m_CastShadows: 1
  m_ReceiveShadows: 1
  m_MotionVectors: 1
  m_LightProbeUsage: 1
  m_ReflectionProbeUsage: 1
  m_Materials:
  - {fileID: 10303, guid: 0000000000000000f000000000000000, type: 0}
  m_StaticBatchInfo:
    firstSubMesh: 0
    subMeshCount: 0
  m_StaticBatchRoot: {fileID: 0}
  m_ProbeAnchor: {fileID: 0}
  m_LightProbeVolumeOverride: {fileID: 0}
  m_ScaleInLightmap: 1
  m_PreserveUVs: 1
  m_IgnoreNormalsForChartDetection: 0
  m_ImportantGI: 0
  m_SelectedEditorRenderState: 3
  m_MinimumChartSize: 4
  m_AutoUVMaxDistance: 0.5
  m_AutoUVMaxAngle: 89
  m_LightmapParameters: {fileID: 0}
  m_SortingLayerID: 0
  m_SortingLayer: 0
  m_SortingOrder: 0
--- !u!65 &1870571620
BoxCollider:
  m_ObjectHideFlags: 0
  m_PrefabParentObject: {fileID: 0}
  m_PrefabInternal: {fileID: 0}
  m_GameObject: {fileID: 1870571618}
  m_Material: {fileID: 0}
  m_IsTrigger: 0
  m_Enabled: 1
  serializedVersion: 2
  m_Size: {x: 1, y: 1, z: 3}
  m_Center: {x: 0, y: 0, z: 0}
--- !u!33 &1870571621
MeshFilter:
  m_ObjectHideFlags: 0
  m_PrefabParentObject: {fileID: 0}
  m_PrefabInternal: {fileID: 0}
  m_GameObject: {fileID: 1870571618}
  m_Mesh: {fileID: 10210, guid: 0000000000000000e000000000000000, type: 0}
--- !u!4 &1870571622
Transform:
  m_ObjectHideFlags: 0
  m_PrefabParentObject: {fileID: 0}
  m_PrefabInternal: {fileID: 0}
  m_GameObject: {fileID: 1870571618}
  m_LocalRotation: {x: 0.7071068, y: 0, z: 0, w: 0.7071067}
  m_LocalPosition: {x: -0.44031, y: -2.31, z: 1.7605462}
  m_LocalScale: {x: 100, y: 100, z: 0.01}
  m_Children: []
  m_Father: {fileID: 0}
  m_RootOrder: 2
  m_LocalEulerAnglesHint: {x: 0, y: 0, z: 0}
--- !u!1 &1902780006
GameObject:
  m_ObjectHideFlags: 0
  m_PrefabParentObject: {fileID: 1919441764971654, guid: 869fa305735e16145ad5d3113e402307,
    type: 2}
  m_PrefabInternal: {fileID: 0}
  serializedVersion: 5
  m_Component:
  - component: {fileID: 1902780007}
  - component: {fileID: 1902780010}
  - component: {fileID: 1902780009}
  - component: {fileID: 1902780008}
  m_Layer: 0
  m_Name: CubeRight
  m_TagString: Untagged
  m_Icon: {fileID: 0}
  m_NavMeshLayer: 0
  m_StaticEditorFlags: 0
  m_IsActive: 1
--- !u!4 &1902780007
Transform:
  m_ObjectHideFlags: 0
  m_PrefabParentObject: {fileID: 4774277786004238, guid: 869fa305735e16145ad5d3113e402307,
    type: 2}
  m_PrefabInternal: {fileID: 0}
  m_GameObject: {fileID: 1902780006}
  m_LocalRotation: {x: 0, y: 0, z: 0, w: 1}
  m_LocalPosition: {x: -0.55, y: -0.025, z: 0}
  m_LocalScale: {x: 0.1, y: 1.15, z: 0.02}
  m_Children: []
  m_Father: {fileID: 2056451222}
  m_RootOrder: 0
  m_LocalEulerAnglesHint: {x: 0, y: 0, z: 0}
--- !u!65 &1902780008
BoxCollider:
  m_ObjectHideFlags: 0
  m_PrefabParentObject: {fileID: 65638736064806002, guid: 869fa305735e16145ad5d3113e402307,
    type: 2}
  m_PrefabInternal: {fileID: 0}
  m_GameObject: {fileID: 1902780006}
  m_Material: {fileID: 0}
  m_IsTrigger: 0
  m_Enabled: 1
  serializedVersion: 2
  m_Size: {x: 1, y: 1, z: 1}
  m_Center: {x: 0, y: 0, z: 0}
--- !u!23 &1902780009
MeshRenderer:
  m_ObjectHideFlags: 0
  m_PrefabParentObject: {fileID: 23764349736668424, guid: 869fa305735e16145ad5d3113e402307,
    type: 2}
  m_PrefabInternal: {fileID: 0}
  m_GameObject: {fileID: 1902780006}
  m_Enabled: 1
  m_CastShadows: 1
  m_ReceiveShadows: 1
  m_MotionVectors: 1
  m_LightProbeUsage: 1
  m_ReflectionProbeUsage: 1
  m_Materials:
  - {fileID: 2100000, guid: 6b9d32e4d89fe2c45942fb5c17392f7c, type: 2}
  m_StaticBatchInfo:
    firstSubMesh: 0
    subMeshCount: 0
  m_StaticBatchRoot: {fileID: 0}
  m_ProbeAnchor: {fileID: 0}
  m_LightProbeVolumeOverride: {fileID: 0}
  m_ScaleInLightmap: 1
  m_PreserveUVs: 1
  m_IgnoreNormalsForChartDetection: 0
  m_ImportantGI: 0
  m_SelectedEditorRenderState: 3
  m_MinimumChartSize: 4
  m_AutoUVMaxDistance: 0.5
  m_AutoUVMaxAngle: 89
  m_LightmapParameters: {fileID: 0}
  m_SortingLayerID: 0
  m_SortingLayer: 0
  m_SortingOrder: 0
--- !u!33 &1902780010
MeshFilter:
  m_ObjectHideFlags: 0
  m_PrefabParentObject: {fileID: 33800072077281962, guid: 869fa305735e16145ad5d3113e402307,
    type: 2}
  m_PrefabInternal: {fileID: 0}
  m_GameObject: {fileID: 1902780006}
  m_Mesh: {fileID: 10202, guid: 0000000000000000e000000000000000, type: 0}
--- !u!21 &2043166176
Material:
  serializedVersion: 6
  m_ObjectHideFlags: 0
  m_PrefabParentObject: {fileID: 0}
  m_PrefabInternal: {fileID: 0}
  m_Name: Standard
  m_Shader: {fileID: 46, guid: 0000000000000000f000000000000000, type: 0}
  m_ShaderKeywords: 
  m_LightmapFlags: 5
  m_EnableInstancingVariants: 0
  m_DoubleSidedGI: 0
  m_CustomRenderQueue: -1
  stringTagMap: {}
  disabledShaderPasses: []
  m_SavedProperties:
    serializedVersion: 3
    m_TexEnvs:
    - _BumpMap:
        m_Texture: {fileID: 0}
        m_Scale: {x: 1, y: 1}
        m_Offset: {x: 0, y: 0}
    - _DetailAlbedoMap:
        m_Texture: {fileID: 0}
        m_Scale: {x: 1, y: 1}
        m_Offset: {x: 0, y: 0}
    - _DetailMask:
        m_Texture: {fileID: 0}
        m_Scale: {x: 1, y: 1}
        m_Offset: {x: 0, y: 0}
    - _DetailNormalMap:
        m_Texture: {fileID: 0}
        m_Scale: {x: 1, y: 1}
        m_Offset: {x: 0, y: 0}
    - _EmissionMap:
        m_Texture: {fileID: 0}
        m_Scale: {x: 1, y: 1}
        m_Offset: {x: 0, y: 0}
    - _MainTex:
        m_Texture: {fileID: 0}
        m_Scale: {x: 1, y: 1}
        m_Offset: {x: 0, y: 0}
    - _MetallicGlossMap:
        m_Texture: {fileID: 0}
        m_Scale: {x: 1, y: 1}
        m_Offset: {x: 0, y: 0}
    - _OcclusionMap:
        m_Texture: {fileID: 0}
        m_Scale: {x: 1, y: 1}
        m_Offset: {x: 0, y: 0}
    - _ParallaxMap:
        m_Texture: {fileID: 0}
        m_Scale: {x: 1, y: 1}
        m_Offset: {x: 0, y: 0}
    m_Floats:
    - _BumpScale: 1
    - _Cutoff: 0.5
    - _DetailNormalMapScale: 1
    - _DstBlend: 0
    - _GlossMapScale: 1
    - _Glossiness: 0.5
    - _GlossyReflections: 1
    - _Metallic: 0
    - _Mode: 0
    - _OcclusionStrength: 1
    - _Parallax: 0.02
    - _SmoothnessTextureChannel: 0
    - _SpecularHighlights: 1
    - _SrcBlend: 1
    - _UVSec: 0
    - _ZWrite: 1
    m_Colors:
    - _Color: {r: 1, g: 1, b: 1, a: 1}
    - _EmissionColor: {r: 0, g: 0, b: 0, a: 1}
--- !u!1 &2056451221
GameObject:
  m_ObjectHideFlags: 0
  m_PrefabParentObject: {fileID: 1522949089100290, guid: 869fa305735e16145ad5d3113e402307,
    type: 2}
  m_PrefabInternal: {fileID: 0}
  serializedVersion: 5
  m_Component:
  - component: {fileID: 2056451222}
  m_Layer: 0
  m_Name: Cubes
  m_TagString: Untagged
  m_Icon: {fileID: 0}
  m_NavMeshLayer: 0
  m_StaticEditorFlags: 0
  m_IsActive: 1
--- !u!4 &2056451222
Transform:
  m_ObjectHideFlags: 0
  m_PrefabParentObject: {fileID: 4130416162872148, guid: 869fa305735e16145ad5d3113e402307,
    type: 2}
  m_PrefabInternal: {fileID: 0}
  m_GameObject: {fileID: 2056451221}
  m_LocalRotation: {x: -0, y: -0, z: -0, w: 1}
  m_LocalPosition: {x: 0, y: 0, z: -0.009999847}
  m_LocalScale: {x: 1, y: 1, z: 1}
  m_Children:
  - {fileID: 1902780007}
  - {fileID: 792525647}
  - {fileID: 774982344}
  - {fileID: 1703792602}
  m_Father: {fileID: 1843670892}
  m_RootOrder: 0
  m_LocalEulerAnglesHint: {x: 0, y: 0, z: 0}
